FP Jan Daniel/Halbleiter/Teil 2/NEW_FOL/TEK0015.CSV

Record Length,2.500000e+03,,   0.000006620000,   0.39888,
Sample Interval,4.000000e-09,,   0.000006624000,   0.39872,
Trigger Point,-1.655000000000e+03,,   0.000006628000,   0.39872,
,,,   0.000006632000,   0.39880,
,,,   0.000006636000,   0.39944,
,,,   0.000006640000,   0.39936,
Source,CH1,,   0.000006644000,   0.39952,
Vertical Units,V,,   0.000006648000,   0.39936,
Vertical Scale,2.000000e-03,,   0.000006652000,   0.39912,
Vertical Offset,-4.032000e-01,,   0.000006656000,   0.39944,
Horizontal Units,s,,   0.000006660000,   0.39936,
Horizontal Scale,1.000000e-06,,   0.000006664000,   0.39920,
Pt Fmt,Y,,   0.000006668000,   0.39976,
Yzero,0.000000e+00,,   0.000006672000,   0.39960,
Probe Atten,1.000000e+00,,   0.000006676000,   0.39952,
Model Number,TDS1002B,,   0.000006680000,   0.39936,
Serial Number,C052304,,   0.000006684000,   0.39944,
Firmware Version,FV:v22.01,,   0.000006688000,   0.39936,
,,,0.000006692000,   0.39936,
,,,0.000006696000,   0.39928,
,,,0.000006700000,   0.39896,
,,,0.000006704000,   0.39896,
,,,0.000006708000,   0.39936,
,,,0.000006712000,   0.39904,
,,,0.000006716000,   0.39880,
,,,0.000006720000,   0.39904,
,,,0.000006724000,   0.39880,
,,,0.000006728000,   0.39880,
,,,0.000006732000,   0.39856,
,,,0.000006736000,   0.39896,
,,,0.000006740000,   0.39896,
,,,0.000006744000,   0.39896,
,,,0.000006748000,   0.39896,
,,,0.000006752000,   0.39888,
,,,0.000006756000,   0.39912,
,,,0.000006760000,   0.39920,
,,,0.000006764000,   0.39896,
,,,0.000006768000,   0.39952,
,,,0.000006772000,   0.39912,
,,,0.000006776000,   0.39968,
,,,0.000006780000,   0.39984,
,,,0.000006784000,   0.39976,
,,,0.000006788000,   0.40016,
,,,0.000006792000,   0.40016,
,,,0.000006796000,   0.39960,
,,,0.000006800000,   0.39968,
,,,0.000006804000,   0.39952,
,,,0.000006808000,   0.39936,
,,,0.000006812000,   0.39944,
,,,0.000006816000,   0.39904,
,,,0.000006820000,   0.39888,
,,,0.000006824000,   0.39912,
,,,0.000006828000,   0.39920,
,,,0.000006832000,   0.39912,
,,,0.000006836000,   0.39936,
,,,0.000006840000,   0.39928,
,,,0.000006844000,   0.39928,
,,,0.000006848000,   0.39928,
,,,0.000006852000,   0.39944,
,,,0.000006856000,   0.39912,
,,,0.000006860000,   0.39912,
,,,0.000006864000,   0.39912,
,,,0.000006868000,   0.39920,
,,,0.000006872000,   0.39928,
,,,0.000006876000,   0.39896,
,,,0.000006880000,   0.39896,
,,,0.000006884000,   0.39904,
,,,0.000006888000,   0.39904,
,,,0.000006892000,   0.39928,
,,,0.000006896000,   0.39928,
,,,0.000006900000,   0.39904,
,,,0.000006904000,   0.39968,
,,,0.000006908000,   0.39968,
,,,0.000006912000,   0.39984,
,,,0.000006916000,   0.39984,
,,,0.000006920000,   0.40000,
,,,0.000006924000,   0.40016,
,,,0.000006928000,   0.40024,
,,,0.000006932000,   0.39952,
,,,0.000006936000,   0.40000,
,,,0.000006940000,   0.39960,
,,,0.000006944000,   0.39952,
,,,0.000006948000,   0.39936,
,,,0.000006952000,   0.39920,
,,,0.000006956000,   0.39944,
,,,0.000006960000,   0.39928,
,,,0.000006964000,   0.39904,
,,,0.000006968000,   0.39952,
,,,0.000006972000,   0.39936,
,,,0.000006976000,   0.39936,
,,,0.000006980000,   0.39952,
,,,0.000006984000,   0.39920,
,,,0.000006988000,   0.39944,
,,,0.000006992000,   0.39896,
,,,0.000006996000,   0.39872,
,,,0.000007000000,   0.39888,
,,,0.000007004000,   0.39920,
,,,0.000007008000,   0.39928,
,,,0.000007012000,   0.39920,
,,,0.000007016000,   0.39896,
,,,0.000007020000,   0.39928,
,,,0.000007024000,   0.39928,
,,,0.000007028000,   0.39920,
,,,0.000007032000,   0.39976,
,,,0.000007036000,   0.39976,
,,,0.000007040000,   0.39984,
,,,0.000007044000,   0.39992,
,,,0.000007048000,   0.39968,
,,,0.000007052000,   0.39976,
,,,0.000007056000,   0.39968,
,,,0.000007060000,   0.39928,
,,,0.000007064000,   0.39952,
,,,0.000007068000,   0.39960,
,,,0.000007072000,   0.39968,
,,,0.000007076000,   0.39928,
,,,0.000007080000,   0.39936,
,,,0.000007084000,   0.39936,
,,,0.000007088000,   0.39912,
,,,0.000007092000,   0.39912,
,,,0.000007096000,   0.39920,
,,,0.000007100000,   0.39920,
,,,0.000007104000,   0.39936,
,,,0.000007108000,   0.39904,
,,,0.000007112000,   0.39904,
,,,0.000007116000,   0.39936,
,,,0.000007120000,   0.39880,
,,,0.000007124000,   0.39936,
,,,0.000007128000,   0.39904,
,,,0.000007132000,   0.39920,
,,,0.000007136000,   0.39928,
,,,0.000007140000,   0.39936,
,,,0.000007144000,   0.39912,
,,,0.000007148000,   0.39936,
,,,0.000007152000,   0.39960,
,,,0.000007156000,   0.39904,
,,,0.000007160000,   0.39904,
,,,0.000007164000,   0.39952,
,,,0.000007168000,   0.39960,
,,,0.000007172000,   0.39984,
,,,0.000007176000,   0.39960,
,,,0.000007180000,   0.39904,
,,,0.000007184000,   0.39952,
,,,0.000007188000,   0.39952,
,,,0.000007192000,   0.39928,
,,,0.000007196000,   0.39920,
,,,0.000007200000,   0.39912,
,,,0.000007204000,   0.39888,
,,,0.000007208000,   0.39912,
,,,0.000007212000,   0.39936,
,,,0.000007216000,   0.39920,
,,,0.000007220000,   0.39944,
,,,0.000007224000,   0.39928,
,,,0.000007228000,   0.39928,
,,,0.000007232000,   0.39944,
,,,0.000007236000,   0.39928,
,,,0.000007240000,   0.39944,
,,,0.000007244000,   0.39904,
,,,0.000007248000,   0.39912,
,,,0.000007252000,   0.39880,
,,,0.000007256000,   0.39904,
,,,0.000007260000,   0.39904,
,,,0.000007264000,   0.39920,
,,,0.000007268000,   0.39928,
,,,0.000007272000,   0.39928,
,,,0.000007276000,   0.39944,
,,,0.000007280000,   0.39976,
,,,0.000007284000,   0.39968,
,,,0.000007288000,   0.39984,
,,,0.000007292000,   0.39976,
,,,0.000007296000,   0.39960,
,,,0.000007300000,   0.39984,
,,,0.000007304000,   0.39960,
,,,0.000007308000,   0.39928,
,,,0.000007312000,   0.39888,
,,,0.000007316000,   0.39904,
,,,0.000007320000,   0.39928,
,,,0.000007324000,   0.39936,
,,,0.000007328000,   0.39912,
,,,0.000007332000,   0.39928,
,,,0.000007336000,   0.39904,
,,,0.000007340000,   0.39920,
,,,0.000007344000,   0.39944,
,,,0.000007348000,   0.39928,
,,,0.000007352000,   0.39960,
,,,0.000007356000,   0.39968,
,,,0.000007360000,   0.39976,
,,,0.000007364000,   0.39984,
,,,0.000007368000,   0.39984,
,,,0.000007372000,   0.40000,
,,,0.000007376000,   0.40000,
,,,0.000007380000,   0.39984,
,,,0.000007384000,   0.40008,
,,,0.000007388000,   0.39984,
,,,0.000007392000,   0.40000,
,,,0.000007396000,   0.40008,
,,,0.000007400000,   0.39992,
,,,0.000007404000,   0.40000,
,,,0.000007408000,   0.40000,
,,,0.000007412000,   0.39976,
,,,0.000007416000,   0.39944,
,,,0.000007420000,   0.39920,
,,,0.000007424000,   0.39920,
,,,0.000007428000,   0.39928,
,,,0.000007432000,   0.39928,
,,,0.000007436000,   0.39928,
,,,0.000007440000,   0.39928,
,,,0.000007444000,   0.39904,
,,,0.000007448000,   0.39920,
,,,0.000007452000,   0.39944,
,,,0.000007456000,   0.39952,
,,,0.000007460000,   0.39960,
,,,0.000007464000,   0.39968,
,,,0.000007468000,   0.39976,
,,,0.000007472000,   0.39944,
,,,0.000007476000,   0.39952,
,,,0.000007480000,   0.39968,
,,,0.000007484000,   0.40000,
,,,0.000007488000,   0.39984,
,,,0.000007492000,   0.39992,
,,,0.000007496000,   0.39976,
,,,0.000007500000,   0.39992,
,,,0.000007504000,   0.39960,
,,,0.000007508000,   0.39928,
,,,0.000007512000,   0.39920,
,,,0.000007516000,   0.39880,
,,,0.000007520000,   0.39912,
,,,0.000007524000,   0.39888,
,,,0.000007528000,   0.39888,
,,,0.000007532000,   0.39944,
,,,0.000007536000,   0.39936,
,,,0.000007540000,   0.39944,
,,,0.000007544000,   0.39936,
,,,0.000007548000,   0.39968,
,,,0.000007552000,   0.39928,
,,,0.000007556000,   0.39952,
,,,0.000007560000,   0.39992,
,,,0.000007564000,   0.39960,
,,,0.000007568000,   0.40000,
,,,0.000007572000,   0.40000,
,,,0.000007576000,   0.40008,
,,,0.000007580000,   0.40040,
,,,0.000007584000,   0.40056,
,,,0.000007588000,   0.39984,
,,,0.000007592000,   0.39968,
,,,0.000007596000,   0.39952,
,,,0.000007600000,   0.39912,
,,,0.000007604000,   0.39896,
,,,0.000007608000,   0.39856,
,,,0.000007612000,   0.39880,
,,,0.000007616000,   0.39904,
,,,0.000007620000,   0.39872,
,,,0.000007624000,   0.39896,
,,,0.000007628000,   0.39920,
,,,0.000007632000,   0.39928,
,,,0.000007636000,   0.39944,
,,,0.000007640000,   0.39960,
,,,0.000007644000,   0.40000,
,,,0.000007648000,   0.39968,
,,,0.000007652000,   0.39976,
,,,0.000007656000,   0.39984,
,,,0.000007660000,   0.39992,
,,,0.000007664000,   0.40024,
,,,0.000007668000,   0.40008,
,,,0.000007672000,   0.39960,
,,,0.000007676000,   0.39952,
,,,0.000007680000,   0.39936,
,,,0.000007684000,   0.39968,
,,,0.000007688000,   0.39936,
,,,0.000007692000,   0.39928,
,,,0.000007696000,   0.39968,
,,,0.000007700000,   0.39952,
,,,0.000007704000,   0.39944,
,,,0.000007708000,   0.39920,
,,,0.000007712000,   0.39912,
,,,0.000007716000,   0.39880,
,,,0.000007720000,   0.39912,
,,,0.000007724000,   0.39896,
,,,0.000007728000,   0.39920,
,,,0.000007732000,   0.39920,
,,,0.000007736000,   0.39928,
,,,0.000007740000,   0.39952,
,,,0.000007744000,   0.39976,
,,,0.000007748000,   0.40016,
,,,0.000007752000,   0.40024,
,,,0.000007756000,   0.40008,
,,,0.000007760000,   0.40016,
,,,0.000007764000,   0.39960,
,,,0.000007768000,   0.39984,
,,,0.000007772000,   0.39976,
,,,0.000007776000,   0.39944,
,,,0.000007780000,   0.39952,
,,,0.000007784000,   0.39912,
,,,0.000007788000,   0.39912,
,,,0.000007792000,   0.39888,
,,,0.000007796000,   0.39856,
,,,0.000007800000,   0.39880,
,,,0.000007804000,   0.39896,
,,,0.000007808000,   0.39928,
,,,0.000007812000,   0.39920,
,,,0.000007816000,   0.39920,
,,,0.000007820000,   0.39920,
,,,0.000007824000,   0.39936,
,,,0.000007828000,   0.39936,
,,,0.000007832000,   0.39936,
,,,0.000007836000,   0.39952,
,,,0.000007840000,   0.39912,
,,,0.000007844000,   0.39952,
,,,0.000007848000,   0.39968,
,,,0.000007852000,   0.39920,
,,,0.000007856000,   0.39936,
,,,0.000007860000,   0.39928,
,,,0.000007864000,   0.39944,
,,,0.000007868000,   0.39912,
,,,0.000007872000,   0.39912,
,,,0.000007876000,   0.39904,
,,,0.000007880000,   0.39920,
,,,0.000007884000,   0.39920,
,,,0.000007888000,   0.39912,
,,,0.000007892000,   0.39920,
,,,0.000007896000,   0.39928,
,,,0.000007900000,   0.39904,
,,,0.000007904000,   0.39928,
,,,0.000007908000,   0.39936,
,,,0.000007912000,   0.39904,
,,,0.000007916000,   0.39920,
,,,0.000007920000,   0.39904,
,,,0.000007924000,   0.39880,
,,,0.000007928000,   0.39920,
,,,0.000007932000,   0.39928,
,,,0.000007936000,   0.39936,
,,,0.000007940000,   0.39960,
,,,0.000007944000,   0.40016,
,,,0.000007948000,   0.39984,
,,,0.000007952000,   0.39984,
,,,0.000007956000,   0.40008,
,,,0.000007960000,   0.39952,
,,,0.000007964000,   0.39952,
,,,0.000007968000,   0.39936,
,,,0.000007972000,   0.39912,
,,,0.000007976000,   0.39920,
,,,0.000007980000,   0.39944,
,,,0.000007984000,   0.39904,
,,,0.000007988000,   0.39920,
,,,0.000007992000,   0.39944,
,,,0.000007996000,   0.39920,
,,,0.000008000000,   0.39920,
,,,0.000008004000,   0.39912,
,,,0.000008008000,   0.39928,
,,,0.000008012000,   0.39920,
,,,0.000008016000,   0.39928,
,,,0.000008020000,   0.39944,
,,,0.000008024000,   0.39920,
,,,0.000008028000,   0.39960,
,,,0.000008032000,   0.39928,
,,,0.000008036000,   0.39928,
,,,0.000008040000,   0.39920,
,,,0.000008044000,   0.39904,
,,,0.000008048000,   0.39936,
,,,0.000008052000,   0.39960,
,,,0.000008056000,   0.39984,
,,,0.000008060000,   0.39992,
,,,0.000008064000,   0.39968,
,,,0.000008068000,   0.39936,
,,,0.000008072000,   0.39944,
,,,0.000008076000,   0.39904,
,,,0.000008080000,   0.39944,
,,,0.000008084000,   0.39928,
,,,0.000008088000,   0.39904,
,,,0.000008092000,   0.39920,
,,,0.000008096000,   0.39896,
,,,0.000008100000,   0.39888,
,,,0.000008104000,   0.39888,
,,,0.000008108000,   0.39888,
,,,0.000008112000,   0.39888,
,,,0.000008116000,   0.39936,
,,,0.000008120000,   0.39920,
,,,0.000008124000,   0.39952,
,,,0.000008128000,   0.39936,
,,,0.000008132000,   0.39952,
,,,0.000008136000,   0.39936,
,,,0.000008140000,   0.39968,
,,,0.000008144000,   0.39968,
,,,0.000008148000,   0.39960,
,,,0.000008152000,   0.39936,
,,,0.000008156000,   0.39976,
,,,0.000008160000,   0.39968,
,,,0.000008164000,   0.39960,
,,,0.000008168000,   0.39952,
,,,0.000008172000,   0.39952,
,,,0.000008176000,   0.39984,
,,,0.000008180000,   0.39960,
,,,0.000008184000,   0.39936,
,,,0.000008188000,   0.39944,
,,,0.000008192000,   0.39936,
,,,0.000008196000,   0.39904,
,,,0.000008200000,   0.39904,
,,,0.000008204000,   0.39880,
,,,0.000008208000,   0.39936,
,,,0.000008212000,   0.39928,
,,,0.000008216000,   0.39944,
,,,0.000008220000,   0.39968,
,,,0.000008224000,   0.39920,
,,,0.000008228000,   0.39968,
,,,0.000008232000,   0.39960,
,,,0.000008236000,   0.39952,
,,,0.000008240000,   0.40008,
,,,0.000008244000,   0.40000,
,,,0.000008248000,   0.39992,
,,,0.000008252000,   0.39976,
,,,0.000008256000,   0.39968,
,,,0.000008260000,   0.39976,
,,,0.000008264000,   0.39944,
,,,0.000008268000,   0.39936,
,,,0.000008272000,   0.39928,
,,,0.000008276000,   0.39912,
,,,0.000008280000,   0.39888,
,,,0.000008284000,   0.39896,
,,,0.000008288000,   0.39912,
,,,0.000008292000,   0.39944,
,,,0.000008296000,   0.39928,
,,,0.000008300000,   0.39912,
,,,0.000008304000,   0.39944,
,,,0.000008308000,   0.39944,
,,,0.000008312000,   0.39976,
,,,0.000008316000,   0.39936,
,,,0.000008320000,   0.39920,
,,,0.000008324000,   0.39952,
,,,0.000008328000,   0.39928,
,,,0.000008332000,   0.39952,
,,,0.000008336000,   0.39960,
,,,0.000008340000,   0.39968,
,,,0.000008344000,   0.39920,
,,,0.000008348000,   0.39896,
,,,0.000008352000,   0.39944,
,,,0.000008356000,   0.39944,
,,,0.000008360000,   0.39960,
,,,0.000008364000,   0.39936,
,,,0.000008368000,   0.39928,
,,,0.000008372000,   0.39944,
,,,0.000008376000,   0.39968,
,,,0.000008380000,   0.39960,
,,,0.000008384000,   0.39944,
,,,0.000008388000,   0.39960,
,,,0.000008392000,   0.39992,
,,,0.000008396000,   0.40000,
,,,0.000008400000,   0.39992,
,,,0.000008404000,   0.40008,
,,,0.000008408000,   0.40016,
,,,0.000008412000,   0.39992,
,,,0.000008416000,   0.39984,
,,,0.000008420000,   0.39968,
,,,0.000008424000,   0.39968,
,,,0.000008428000,   0.39976,
,,,0.000008432000,   0.39936,
,,,0.000008436000,   0.39928,
,,,0.000008440000,   0.39912,
,,,0.000008444000,   0.39920,
,,,0.000008448000,   0.39936,
,,,0.000008452000,   0.39928,
,,,0.000008456000,   0.39928,
,,,0.000008460000,   0.39912,
,,,0.000008464000,   0.39928,
,,,0.000008468000,   0.39968,
,,,0.000008472000,   0.39952,
,,,0.000008476000,   0.39960,
,,,0.000008480000,   0.39928,
,,,0.000008484000,   0.39936,
,,,0.000008488000,   0.39968,
,,,0.000008492000,   0.39952,
,,,0.000008496000,   0.39976,
,,,0.000008500000,   0.39944,
,,,0.000008504000,   0.39952,
,,,0.000008508000,   0.39968,
,,,0.000008512000,   0.40008,
,,,0.000008516000,   0.40000,
,,,0.000008520000,   0.40024,
,,,0.000008524000,   0.40000,
,,,0.000008528000,   0.40016,
,,,0.000008532000,   0.40016,
,,,0.000008536000,   0.40000,
,,,0.000008540000,   0.40016,
,,,0.000008544000,   0.40064,
,,,0.000008548000,   0.40008,
,,,0.000008552000,   0.40032,
,,,0.000008556000,   0.40024,
,,,0.000008560000,   0.40008,
,,,0.000008564000,   0.40000,
,,,0.000008568000,   0.39984,
,,,0.000008572000,   0.40000,
,,,0.000008576000,   0.39976,
,,,0.000008580000,   0.39936,
,,,0.000008584000,   0.39920,
,,,0.000008588000,   0.39912,
,,,0.000008592000,   0.39928,
,,,0.000008596000,   0.39944,
,,,0.000008600000,   0.39952,
,,,0.000008604000,   0.39936,
,,,0.000008608000,   0.39944,
,,,0.000008612000,   0.39952,
,,,0.000008616000,   0.39976,
,,,0.000008620000,   0.39960,
,,,0.000008624000,   0.39984,
,,,0.000008628000,   0.39992,
,,,0.000008632000,   0.39952,
,,,0.000008636000,   0.39984,
,,,0.000008640000,   0.39976,
,,,0.000008644000,   0.39976,
,,,0.000008648000,   0.39968,
,,,0.000008652000,   0.39944,
,,,0.000008656000,   0.39984,
,,,0.000008660000,   0.39936,
,,,0.000008664000,   0.39952,
,,,0.000008668000,   0.39944,
,,,0.000008672000,   0.39928,
,,,0.000008676000,   0.39960,
,,,0.000008680000,   0.39960,
,,,0.000008684000,   0.39976,
,,,0.000008688000,   0.39960,
,,,0.000008692000,   0.39936,
,,,0.000008696000,   0.39912,
,,,0.000008700000,   0.39960,
,,,0.000008704000,   0.39920,
,,,0.000008708000,   0.39944,
,,,0.000008712000,   0.39920,
,,,0.000008716000,   0.39928,
,,,0.000008720000,   0.39976,
,,,0.000008724000,   0.39960,
,,,0.000008728000,   0.39960,
,,,0.000008732000,   0.39968,
,,,0.000008736000,   0.39960,
,,,0.000008740000,   0.39952,
,,,0.000008744000,   0.39952,
,,,0.000008748000,   0.39992,
,,,0.000008752000,   0.39976,
,,,0.000008756000,   0.39968,
,,,0.000008760000,   0.39960,
,,,0.000008764000,   0.39912,
,,,0.000008768000,   0.39904,
,,,0.000008772000,   0.39928,
,,,0.000008776000,   0.39872,
,,,0.000008780000,   0.39880,
,,,0.000008784000,   0.39888,
,,,0.000008788000,   0.39896,
,,,0.000008792000,   0.39912,
,,,0.000008796000,   0.39888,
,,,0.000008800000,   0.39904,
,,,0.000008804000,   0.39928,
,,,0.000008808000,   0.39952,
,,,0.000008812000,   0.39952,
,,,0.000008816000,   0.39952,
,,,0.000008820000,   0.39960,
,,,0.000008824000,   0.39960,
,,,0.000008828000,   0.39960,
,,,0.000008832000,   0.39944,
,,,0.000008836000,   0.39944,
,,,0.000008840000,   0.39984,
,,,0.000008844000,   0.39968,
,,,0.000008848000,   0.39960,
,,,0.000008852000,   0.39952,
,,,0.000008856000,   0.39928,
,,,0.000008860000,   0.39920,
,,,0.000008864000,   0.39912,
,,,0.000008868000,   0.39912,
,,,0.000008872000,   0.39912,
,,,0.000008876000,   0.39912,
,,,0.000008880000,   0.39928,
,,,0.000008884000,   0.39960,
,,,0.000008888000,   0.39968,
,,,0.000008892000,   0.39984,
,,,0.000008896000,   0.39992,
,,,0.000008900000,   0.40000,
,,,0.000008904000,   0.40008,
,,,0.000008908000,   0.40024,
,,,0.000008912000,   0.40000,
,,,0.000008916000,   0.40040,
,,,0.000008920000,   0.40008,
,,,0.000008924000,   0.39952,
,,,0.000008928000,   0.39952,
,,,0.000008932000,   0.39936,
,,,0.000008936000,   0.39952,
,,,0.000008940000,   0.39952,
,,,0.000008944000,   0.39920,
,,,0.000008948000,   0.39920,
,,,0.000008952000,   0.39888,
,,,0.000008956000,   0.39880,
,,,0.000008960000,   0.39880,
,,,0.000008964000,   0.39920,
,,,0.000008968000,   0.39984,
,,,0.000008972000,   0.39976,
,,,0.000008976000,   0.40000,
,,,0.000008980000,   0.40008,
,,,0.000008984000,   0.40000,
,,,0.000008988000,   0.39992,
,,,0.000008992000,   0.39984,
,,,0.000008996000,   0.39960,
,,,0.000009000000,   0.39976,
,,,0.000009004000,   0.39952,
,,,0.000009008000,   0.39952,
,,,0.000009012000,   0.40000,
,,,0.000009016000,   0.39984,
,,,0.000009020000,   0.39984,
,,,0.000009024000,   0.39992,
,,,0.000009028000,   0.39944,
,,,0.000009032000,   0.39944,
,,,0.000009036000,   0.39936,
,,,0.000009040000,   0.39904,
,,,0.000009044000,   0.39904,
,,,0.000009048000,   0.39928,
,,,0.000009052000,   0.39960,
,,,0.000009056000,   0.39920,
,,,0.000009060000,   0.39968,
,,,0.000009064000,   0.39944,
,,,0.000009068000,   0.39936,
,,,0.000009072000,   0.39944,
,,,0.000009076000,   0.39960,
,,,0.000009080000,   0.39984,
,,,0.000009084000,   0.40016,
,,,0.000009088000,   0.40008,
,,,0.000009092000,   0.40000,
,,,0.000009096000,   0.40040,
,,,0.000009100000,   0.40008,
,,,0.000009104000,   0.40032,
,,,0.000009108000,   0.39960,
,,,0.000009112000,   0.39968,
,,,0.000009116000,   0.39984,
,,,0.000009120000,   0.39960,
,,,0.000009124000,   0.39968,
,,,0.000009128000,   0.39968,
,,,0.000009132000,   0.39984,
,,,0.000009136000,   0.39928,
,,,0.000009140000,   0.39960,
,,,0.000009144000,   0.39960,
,,,0.000009148000,   0.39952,
,,,0.000009152000,   0.39968,
,,,0.000009156000,   0.39984,
,,,0.000009160000,   0.39968,
,,,0.000009164000,   0.39984,
,,,0.000009168000,   0.40000,
,,,0.000009172000,   0.40008,
,,,0.000009176000,   0.39992,
,,,0.000009180000,   0.39960,
,,,0.000009184000,   0.39944,
,,,0.000009188000,   0.39968,
,,,0.000009192000,   0.39936,
,,,0.000009196000,   0.39952,
,,,0.000009200000,   0.39984,
,,,0.000009204000,   0.39968,
,,,0.000009208000,   0.39992,
,,,0.000009212000,   0.40000,
,,,0.000009216000,   0.39984,
,,,0.000009220000,   0.39984,
,,,0.000009224000,   0.39968,
,,,0.000009228000,   0.39984,
,,,0.000009232000,   0.39960,
