FP Jan Daniel/Halbleiter/Teil 2/NEW_FOL/TEK0013.CSV

Record Length,2.500000e+03,,   0.000009920000,   0.42520,
Sample Interval,4.000000e-09,,   0.000009924000,   0.42520,
Trigger Point,-2.480000000000e+03,,   0.000009928000,   0.42544,
,,,   0.000009932000,   0.42512,
,,,   0.000009936000,   0.42480,
,,,   0.000009940000,   0.42512,
Source,CH1,,   0.000009944000,   0.42512,
Vertical Units,V,,   0.000009948000,   0.42512,
Vertical Scale,2.000000e-03,,   0.000009952000,   0.42520,
Vertical Offset,-4.300000e-01,,   0.000009956000,   0.42544,
Horizontal Units,s,,   0.000009960000,   0.42536,
Horizontal Scale,1.000000e-06,,   0.000009964000,   0.42544,
Pt Fmt,Y,,   0.000009968000,   0.42536,
Yzero,0.000000e+00,,   0.000009972000,   0.42504,
Probe Atten,1.000000e+00,,   0.000009976000,   0.42536,
Model Number,TDS1002B,,   0.000009980000,   0.42536,
Serial Number,C052304,,   0.000009984000,   0.42520,
Firmware Version,FV:v22.01,,   0.000009988000,   0.42504,
,,,0.000009992000,   0.42536,
,,,0.000009996000,   0.42504,
,,,0.000010000000,   0.42496,
,,,0.000010004000,   0.42488,
,,,0.000010008000,   0.42512,
,,,0.000010012000,   0.42528,
,,,0.000010016000,   0.42536,
,,,0.000010020000,   0.42552,
,,,0.000010024000,   0.42552,
,,,0.000010028000,   0.42536,
,,,0.000010032000,   0.42568,
,,,0.000010036000,   0.42528,
,,,0.000010040000,   0.42544,
,,,0.000010044000,   0.42504,
,,,0.000010048000,   0.42520,
,,,0.000010052000,   0.42528,
,,,0.000010056000,   0.42504,
,,,0.000010060000,   0.42512,
,,,0.000010064000,   0.42512,
,,,0.000010068000,   0.42504,
,,,0.000010072000,   0.42512,
,,,0.000010076000,   0.42504,
,,,0.000010080000,   0.42520,
,,,0.000010084000,   0.42464,
,,,0.000010088000,   0.42456,
,,,0.000010092000,   0.42520,
,,,0.000010096000,   0.42512,
,,,0.000010100000,   0.42552,
,,,0.000010104000,   0.42520,
,,,0.000010108000,   0.42544,
,,,0.000010112000,   0.42544,
,,,0.000010116000,   0.42584,
,,,0.000010120000,   0.42560,
,,,0.000010124000,   0.42560,
,,,0.000010128000,   0.42552,
,,,0.000010132000,   0.42560,
,,,0.000010136000,   0.42568,
,,,0.000010140000,   0.42560,
,,,0.000010144000,   0.42576,
,,,0.000010148000,   0.42584,
,,,0.000010152000,   0.42512,
,,,0.000010156000,   0.42520,
,,,0.000010160000,   0.42488,
,,,0.000010164000,   0.42528,
,,,0.000010168000,   0.42504,
,,,0.000010172000,   0.42512,
,,,0.000010176000,   0.42512,
,,,0.000010180000,   0.42488,
,,,0.000010184000,   0.42520,
,,,0.000010188000,   0.42528,
,,,0.000010192000,   0.42528,
,,,0.000010196000,   0.42520,
,,,0.000010200000,   0.42536,
,,,0.000010204000,   0.42504,
,,,0.000010208000,   0.42528,
,,,0.000010212000,   0.42552,
,,,0.000010216000,   0.42520,
,,,0.000010220000,   0.42552,
,,,0.000010224000,   0.42552,
,,,0.000010228000,   0.42552,
,,,0.000010232000,   0.42536,
,,,0.000010236000,   0.42504,
,,,0.000010240000,   0.42496,
,,,0.000010244000,   0.42504,
,,,0.000010248000,   0.42496,
,,,0.000010252000,   0.42552,
,,,0.000010256000,   0.42584,
,,,0.000010260000,   0.42592,
,,,0.000010264000,   0.42568,
,,,0.000010268000,   0.42568,
,,,0.000010272000,   0.42552,
,,,0.000010276000,   0.42512,
,,,0.000010280000,   0.42504,
,,,0.000010284000,   0.42504,
,,,0.000010288000,   0.42496,
,,,0.000010292000,   0.42488,
,,,0.000010296000,   0.42464,
,,,0.000010300000,   0.42488,
,,,0.000010304000,   0.42496,
,,,0.000010308000,   0.42464,
,,,0.000010312000,   0.42496,
,,,0.000010316000,   0.42488,
,,,0.000010320000,   0.42504,
,,,0.000010324000,   0.42544,
,,,0.000010328000,   0.42544,
,,,0.000010332000,   0.42528,
,,,0.000010336000,   0.42568,
,,,0.000010340000,   0.42536,
,,,0.000010344000,   0.42528,
,,,0.000010348000,   0.42520,
,,,0.000010352000,   0.42544,
,,,0.000010356000,   0.42536,
,,,0.000010360000,   0.42552,
,,,0.000010364000,   0.42520,
,,,0.000010368000,   0.42472,
,,,0.000010372000,   0.42488,
,,,0.000010376000,   0.42504,
,,,0.000010380000,   0.42480,
,,,0.000010384000,   0.42480,
,,,0.000010388000,   0.42456,
,,,0.000010392000,   0.42448,
,,,0.000010396000,   0.42472,
,,,0.000010400000,   0.42488,
,,,0.000010404000,   0.42512,
,,,0.000010408000,   0.42504,
,,,0.000010412000,   0.42528,
,,,0.000010416000,   0.42544,
,,,0.000010420000,   0.42552,
,,,0.000010424000,   0.42552,
,,,0.000010428000,   0.42552,
,,,0.000010432000,   0.42520,
,,,0.000010436000,   0.42536,
,,,0.000010440000,   0.42496,
,,,0.000010444000,   0.42528,
,,,0.000010448000,   0.42504,
,,,0.000010452000,   0.42512,
,,,0.000010456000,   0.42520,
,,,0.000010460000,   0.42512,
,,,0.000010464000,   0.42512,
,,,0.000010468000,   0.42512,
,,,0.000010472000,   0.42504,
,,,0.000010476000,   0.42512,
,,,0.000010480000,   0.42488,
,,,0.000010484000,   0.42512,
,,,0.000010488000,   0.42496,
,,,0.000010492000,   0.42456,
,,,0.000010496000,   0.42520,
,,,0.000010500000,   0.42504,
,,,0.000010504000,   0.42512,
,,,0.000010508000,   0.42520,
,,,0.000010512000,   0.42576,
,,,0.000010516000,   0.42576,
,,,0.000010520000,   0.42576,
,,,0.000010524000,   0.42568,
,,,0.000010528000,   0.42560,
,,,0.000010532000,   0.42544,
,,,0.000010536000,   0.42552,
,,,0.000010540000,   0.42568,
,,,0.000010544000,   0.42536,
,,,0.000010548000,   0.42496,
,,,0.000010552000,   0.42520,
,,,0.000010556000,   0.42480,
,,,0.000010560000,   0.42496,
,,,0.000010564000,   0.42488,
,,,0.000010568000,   0.42488,
,,,0.000010572000,   0.42512,
,,,0.000010576000,   0.42496,
,,,0.000010580000,   0.42496,
,,,0.000010584000,   0.42536,
,,,0.000010588000,   0.42552,
,,,0.000010592000,   0.42576,
,,,0.000010596000,   0.42568,
,,,0.000010600000,   0.42528,
,,,0.000010604000,   0.42528,
,,,0.000010608000,   0.42496,
,,,0.000010612000,   0.42528,
,,,0.000010616000,   0.42552,
,,,0.000010620000,   0.42560,
,,,0.000010624000,   0.42528,
,,,0.000010628000,   0.42536,
,,,0.000010632000,   0.42480,
,,,0.000010636000,   0.42480,
,,,0.000010640000,   0.42480,
,,,0.000010644000,   0.42464,
,,,0.000010648000,   0.42480,
,,,0.000010652000,   0.42480,
,,,0.000010656000,   0.42480,
,,,0.000010660000,   0.42456,
,,,0.000010664000,   0.42464,
,,,0.000010668000,   0.42440,
,,,0.000010672000,   0.42440,
,,,0.000010676000,   0.42464,
,,,0.000010680000,   0.42488,
,,,0.000010684000,   0.42504,
,,,0.000010688000,   0.42552,
,,,0.000010692000,   0.42552,
,,,0.000010696000,   0.42560,
,,,0.000010700000,   0.42592,
,,,0.000010704000,   0.42560,
,,,0.000010708000,   0.42592,
,,,0.000010712000,   0.42568,
,,,0.000010716000,   0.42536,
,,,0.000010720000,   0.42568,
,,,0.000010724000,   0.42552,
,,,0.000010728000,   0.42560,
,,,0.000010732000,   0.42544,
,,,0.000010736000,   0.42552,
,,,0.000010740000,   0.42512,
,,,0.000010744000,   0.42472,
,,,0.000010748000,   0.42504,
,,,0.000010752000,   0.42480,
,,,0.000010756000,   0.42512,
,,,0.000010760000,   0.42504,
,,,0.000010764000,   0.42472,
,,,0.000010768000,   0.42496,
,,,0.000010772000,   0.42504,
,,,0.000010776000,   0.42496,
,,,0.000010780000,   0.42496,
,,,0.000010784000,   0.42512,
,,,0.000010788000,   0.42512,
,,,0.000010792000,   0.42504,
,,,0.000010796000,   0.42480,
,,,0.000010800000,   0.42504,
,,,0.000010804000,   0.42504,
,,,0.000010808000,   0.42504,
,,,0.000010812000,   0.42504,
,,,0.000010816000,   0.42536,
,,,0.000010820000,   0.42528,
,,,0.000010824000,   0.42536,
,,,0.000010828000,   0.42520,
,,,0.000010832000,   0.42536,
,,,0.000010836000,   0.42528,
,,,0.000010840000,   0.42552,
,,,0.000010844000,   0.42536,
,,,0.000010848000,   0.42544,
,,,0.000010852000,   0.42544,
,,,0.000010856000,   0.42520,
,,,0.000010860000,   0.42504,
,,,0.000010864000,   0.42488,
,,,0.000010868000,   0.42504,
,,,0.000010872000,   0.42528,
,,,0.000010876000,   0.42504,
,,,0.000010880000,   0.42520,
,,,0.000010884000,   0.42536,
,,,0.000010888000,   0.42520,
,,,0.000010892000,   0.42520,
,,,0.000010896000,   0.42488,
,,,0.000010900000,   0.42504,
,,,0.000010904000,   0.42520,
,,,0.000010908000,   0.42536,
,,,0.000010912000,   0.42528,
,,,0.000010916000,   0.42568,
,,,0.000010920000,   0.42536,
,,,0.000010924000,   0.42520,
,,,0.000010928000,   0.42512,
,,,0.000010932000,   0.42528,
,,,0.000010936000,   0.42560,
,,,0.000010940000,   0.42544,
,,,0.000010944000,   0.42528,
,,,0.000010948000,   0.42528,
,,,0.000010952000,   0.42512,
,,,0.000010956000,   0.42496,
,,,0.000010960000,   0.42496,
,,,0.000010964000,   0.42480,
,,,0.000010968000,   0.42448,
,,,0.000010972000,   0.42432,
,,,0.000010976000,   0.42432,
,,,0.000010980000,   0.42424,
,,,0.000010984000,   0.42504,
,,,0.000010988000,   0.42480,
,,,0.000010992000,   0.42496,
,,,0.000010996000,   0.42456,
,,,0.000011000000,   0.42488,
,,,0.000011004000,   0.42496,
,,,0.000011008000,   0.42528,
,,,0.000011012000,   0.42592,
,,,0.000011016000,   0.42576,
,,,0.000011020000,   0.42584,
,,,0.000011024000,   0.42552,
,,,0.000011028000,   0.42552,
,,,0.000011032000,   0.42568,
,,,0.000011036000,   0.42536,
,,,0.000011040000,   0.42496,
,,,0.000011044000,   0.42512,
,,,0.000011048000,   0.42504,
,,,0.000011052000,   0.42480,
,,,0.000011056000,   0.42440,
,,,0.000011060000,   0.42456,
,,,0.000011064000,   0.42472,
,,,0.000011068000,   0.42488,
,,,0.000011072000,   0.42528,
,,,0.000011076000,   0.42520,
,,,0.000011080000,   0.42528,
,,,0.000011084000,   0.42552,
,,,0.000011088000,   0.42504,
,,,0.000011092000,   0.42480,
,,,0.000011096000,   0.42512,
,,,0.000011100000,   0.42480,
,,,0.000011104000,   0.42520,
,,,0.000011108000,   0.42432,
,,,0.000011112000,   0.42472,
,,,0.000011116000,   0.42480,
,,,0.000011120000,   0.42464,
,,,0.000011124000,   0.42432,
,,,0.000011128000,   0.42472,
,,,0.000011132000,   0.42464,
,,,0.000011136000,   0.42432,
,,,0.000011140000,   0.42472,
,,,0.000011144000,   0.42504,
,,,0.000011148000,   0.42512,
,,,0.000011152000,   0.42544,
,,,0.000011156000,   0.42552,
,,,0.000011160000,   0.42536,
,,,0.000011164000,   0.42552,
,,,0.000011168000,   0.42560,
,,,0.000011172000,   0.42536,
,,,0.000011176000,   0.42528,
,,,0.000011180000,   0.42520,
,,,0.000011184000,   0.42512,
,,,0.000011188000,   0.42528,
,,,0.000011192000,   0.42488,
,,,0.000011196000,   0.42512,
,,,0.000011200000,   0.42496,
,,,0.000011204000,   0.42496,
,,,0.000011208000,   0.42448,
,,,0.000011212000,   0.42480,
,,,0.000011216000,   0.42456,
,,,0.000011220000,   0.42480,
,,,0.000011224000,   0.42456,
,,,0.000011228000,   0.42440,
,,,0.000011232000,   0.42432,
,,,0.000011236000,   0.42464,
,,,0.000011240000,   0.42464,
,,,0.000011244000,   0.42472,
,,,0.000011248000,   0.42488,
,,,0.000011252000,   0.42488,
,,,0.000011256000,   0.42528,
,,,0.000011260000,   0.42528,
,,,0.000011264000,   0.42528,
,,,0.000011268000,   0.42528,
,,,0.000011272000,   0.42528,
,,,0.000011276000,   0.42520,
,,,0.000011280000,   0.42520,
,,,0.000011284000,   0.42504,
,,,0.000011288000,   0.42504,
,,,0.000011292000,   0.42472,
,,,0.000011296000,   0.42456,
,,,0.000011300000,   0.42480,
,,,0.000011304000,   0.42488,
,,,0.000011308000,   0.42472,
,,,0.000011312000,   0.42504,
,,,0.000011316000,   0.42448,
,,,0.000011320000,   0.42456,
,,,0.000011324000,   0.42480,
,,,0.000011328000,   0.42480,
,,,0.000011332000,   0.42488,
,,,0.000011336000,   0.42512,
,,,0.000011340000,   0.42488,
,,,0.000011344000,   0.42552,
,,,0.000011348000,   0.42528,
,,,0.000011352000,   0.42520,
,,,0.000011356000,   0.42520,
,,,0.000011360000,   0.42536,
,,,0.000011364000,   0.42544,
,,,0.000011368000,   0.42536,
,,,0.000011372000,   0.42536,
,,,0.000011376000,   0.42536,
,,,0.000011380000,   0.42512,
,,,0.000011384000,   0.42488,
,,,0.000011388000,   0.42496,
,,,0.000011392000,   0.42464,
,,,0.000011396000,   0.42440,
,,,0.000011400000,   0.42440,
,,,0.000011404000,   0.42416,
,,,0.000011408000,   0.42424,
,,,0.000011412000,   0.42440,
,,,0.000011416000,   0.42456,
,,,0.000011420000,   0.42472,
,,,0.000011424000,   0.42472,
,,,0.000011428000,   0.42488,
,,,0.000011432000,   0.42512,
,,,0.000011436000,   0.42504,
,,,0.000011440000,   0.42536,
,,,0.000011444000,   0.42528,
,,,0.000011448000,   0.42560,
,,,0.000011452000,   0.42504,
,,,0.000011456000,   0.42528,
,,,0.000011460000,   0.42552,
,,,0.000011464000,   0.42536,
,,,0.000011468000,   0.42528,
,,,0.000011472000,   0.42496,
,,,0.000011476000,   0.42488,
,,,0.000011480000,   0.42504,
,,,0.000011484000,   0.42480,
,,,0.000011488000,   0.42464,
,,,0.000011492000,   0.42496,
,,,0.000011496000,   0.42464,
,,,0.000011500000,   0.42496,
,,,0.000011504000,   0.42432,
,,,0.000011508000,   0.42432,
,,,0.000011512000,   0.42456,
,,,0.000011516000,   0.42432,
,,,0.000011520000,   0.42472,
,,,0.000011524000,   0.42480,
,,,0.000011528000,   0.42472,
,,,0.000011532000,   0.42480,
,,,0.000011536000,   0.42488,
,,,0.000011540000,   0.42528,
,,,0.000011544000,   0.42504,
,,,0.000011548000,   0.42520,
,,,0.000011552000,   0.42520,
,,,0.000011556000,   0.42536,
,,,0.000011560000,   0.42568,
,,,0.000011564000,   0.42584,
,,,0.000011568000,   0.42544,
,,,0.000011572000,   0.42536,
,,,0.000011576000,   0.42544,
,,,0.000011580000,   0.42488,
,,,0.000011584000,   0.42456,
,,,0.000011588000,   0.42440,
,,,0.000011592000,   0.42424,
,,,0.000011596000,   0.42408,
,,,0.000011600000,   0.42432,
,,,0.000011604000,   0.42416,
,,,0.000011608000,   0.42432,
,,,0.000011612000,   0.42464,
,,,0.000011616000,   0.42488,
,,,0.000011620000,   0.42496,
,,,0.000011624000,   0.42512,
,,,0.000011628000,   0.42480,
,,,0.000011632000,   0.42488,
,,,0.000011636000,   0.42512,
,,,0.000011640000,   0.42536,
,,,0.000011644000,   0.42536,
,,,0.000011648000,   0.42552,
,,,0.000011652000,   0.42528,
,,,0.000011656000,   0.42536,
,,,0.000011660000,   0.42528,
,,,0.000011664000,   0.42536,
,,,0.000011668000,   0.42480,
,,,0.000011672000,   0.42480,
,,,0.000011676000,   0.42488,
,,,0.000011680000,   0.42448,
,,,0.000011684000,   0.42456,
,,,0.000011688000,   0.42416,
,,,0.000011692000,   0.42424,
,,,0.000011696000,   0.42440,
,,,0.000011700000,   0.42456,
,,,0.000011704000,   0.42456,
,,,0.000011708000,   0.42512,
,,,0.000011712000,   0.42480,
,,,0.000011716000,   0.42472,
,,,0.000011720000,   0.42480,
,,,0.000011724000,   0.42528,
,,,0.000011728000,   0.42544,
,,,0.000011732000,   0.42576,
,,,0.000011736000,   0.42528,
,,,0.000011740000,   0.42584,
,,,0.000011744000,   0.42560,
,,,0.000011748000,   0.42560,
,,,0.000011752000,   0.42536,
,,,0.000011756000,   0.42512,
,,,0.000011760000,   0.42536,
,,,0.000011764000,   0.42520,
,,,0.000011768000,   0.42472,
,,,0.000011772000,   0.42496,
,,,0.000011776000,   0.42480,
,,,0.000011780000,   0.42440,
,,,0.000011784000,   0.42456,
,,,0.000011788000,   0.42432,
,,,0.000011792000,   0.42424,
,,,0.000011796000,   0.42440,
,,,0.000011800000,   0.42472,
,,,0.000011804000,   0.42480,
,,,0.000011808000,   0.42488,
,,,0.000011812000,   0.42464,
,,,0.000011816000,   0.42496,
,,,0.000011820000,   0.42472,
,,,0.000011824000,   0.42496,
,,,0.000011828000,   0.42512,
,,,0.000011832000,   0.42496,
,,,0.000011836000,   0.42528,
,,,0.000011840000,   0.42520,
,,,0.000011844000,   0.42552,
,,,0.000011848000,   0.42544,
,,,0.000011852000,   0.42552,
,,,0.000011856000,   0.42528,
,,,0.000011860000,   0.42512,
,,,0.000011864000,   0.42512,
,,,0.000011868000,   0.42488,
,,,0.000011872000,   0.42472,
,,,0.000011876000,   0.42504,
,,,0.000011880000,   0.42456,
,,,0.000011884000,   0.42432,
,,,0.000011888000,   0.42456,
,,,0.000011892000,   0.42432,
,,,0.000011896000,   0.42456,
,,,0.000011900000,   0.42408,
,,,0.000011904000,   0.42424,
,,,0.000011908000,   0.42488,
,,,0.000011912000,   0.42480,
,,,0.000011916000,   0.42504,
,,,0.000011920000,   0.42528,
,,,0.000011924000,   0.42528,
,,,0.000011928000,   0.42528,
,,,0.000011932000,   0.42520,
,,,0.000011936000,   0.42568,
,,,0.000011940000,   0.42504,
,,,0.000011944000,   0.42536,
,,,0.000011948000,   0.42504,
,,,0.000011952000,   0.42472,
,,,0.000011956000,   0.42488,
,,,0.000011960000,   0.42488,
,,,0.000011964000,   0.42456,
,,,0.000011968000,   0.42448,
,,,0.000011972000,   0.42472,
,,,0.000011976000,   0.42456,
,,,0.000011980000,   0.42464,
,,,0.000011984000,   0.42424,
,,,0.000011988000,   0.42440,
,,,0.000011992000,   0.42456,
,,,0.000011996000,   0.42472,
,,,0.000012000000,   0.42488,
,,,0.000012004000,   0.42536,
,,,0.000012008000,   0.42544,
,,,0.000012012000,   0.42520,
,,,0.000012016000,   0.42512,
,,,0.000012020000,   0.42504,
,,,0.000012024000,   0.42480,
,,,0.000012028000,   0.42544,
,,,0.000012032000,   0.42504,
,,,0.000012036000,   0.42480,
,,,0.000012040000,   0.42480,
,,,0.000012044000,   0.42472,
,,,0.000012048000,   0.42472,
,,,0.000012052000,   0.42480,
,,,0.000012056000,   0.42456,
,,,0.000012060000,   0.42480,
,,,0.000012064000,   0.42480,
,,,0.000012068000,   0.42488,
,,,0.000012072000,   0.42544,
,,,0.000012076000,   0.42504,
,,,0.000012080000,   0.42528,
,,,0.000012084000,   0.42512,
,,,0.000012088000,   0.42552,
,,,0.000012092000,   0.42528,
,,,0.000012096000,   0.42544,
,,,0.000012100000,   0.42520,
,,,0.000012104000,   0.42528,
,,,0.000012108000,   0.42496,
,,,0.000012112000,   0.42504,
,,,0.000012116000,   0.42528,
,,,0.000012120000,   0.42528,
,,,0.000012124000,   0.42520,
,,,0.000012128000,   0.42520,
,,,0.000012132000,   0.42496,
,,,0.000012136000,   0.42504,
,,,0.000012140000,   0.42472,
,,,0.000012144000,   0.42496,
,,,0.000012148000,   0.42488,
,,,0.000012152000,   0.42512,
,,,0.000012156000,   0.42560,
,,,0.000012160000,   0.42544,
,,,0.000012164000,   0.42528,
,,,0.000012168000,   0.42536,
,,,0.000012172000,   0.42536,
,,,0.000012176000,   0.42536,
,,,0.000012180000,   0.42568,
,,,0.000012184000,   0.42520,
,,,0.000012188000,   0.42512,
,,,0.000012192000,   0.42512,
,,,0.000012196000,   0.42520,
,,,0.000012200000,   0.42560,
,,,0.000012204000,   0.42576,
,,,0.000012208000,   0.42552,
,,,0.000012212000,   0.42544,
,,,0.000012216000,   0.42504,
,,,0.000012220000,   0.42496,
,,,0.000012224000,   0.42512,
,,,0.000012228000,   0.42496,
,,,0.000012232000,   0.42512,
,,,0.000012236000,   0.42480,
,,,0.000012240000,   0.42496,
,,,0.000012244000,   0.42456,
,,,0.000012248000,   0.42504,
,,,0.000012252000,   0.42488,
,,,0.000012256000,   0.42496,
,,,0.000012260000,   0.42528,
,,,0.000012264000,   0.42512,
,,,0.000012268000,   0.42512,
,,,0.000012272000,   0.42552,
,,,0.000012276000,   0.42536,
,,,0.000012280000,   0.42552,
,,,0.000012284000,   0.42552,
,,,0.000012288000,   0.42536,
,,,0.000012292000,   0.42576,
,,,0.000012296000,   0.42536,
,,,0.000012300000,   0.42520,
,,,0.000012304000,   0.42536,
,,,0.000012308000,   0.42512,
,,,0.000012312000,   0.42464,
,,,0.000012316000,   0.42472,
,,,0.000012320000,   0.42464,
,,,0.000012324000,   0.42456,
,,,0.000012328000,   0.42488,
,,,0.000012332000,   0.42512,
,,,0.000012336000,   0.42480,
,,,0.000012340000,   0.42496,
,,,0.000012344000,   0.42448,
,,,0.000012348000,   0.42432,
,,,0.000012352000,   0.42472,
,,,0.000012356000,   0.42504,
,,,0.000012360000,   0.42512,
,,,0.000012364000,   0.42552,
,,,0.000012368000,   0.42592,
,,,0.000012372000,   0.42568,
,,,0.000012376000,   0.42560,
,,,0.000012380000,   0.42552,
,,,0.000012384000,   0.42544,
,,,0.000012388000,   0.42528,
,,,0.000012392000,   0.42536,
,,,0.000012396000,   0.42520,
,,,0.000012400000,   0.42512,
,,,0.000012404000,   0.42488,
,,,0.000012408000,   0.42480,
,,,0.000012412000,   0.42464,
,,,0.000012416000,   0.42472,
,,,0.000012420000,   0.42416,
,,,0.000012424000,   0.42480,
,,,0.000012428000,   0.42448,
,,,0.000012432000,   0.42464,
,,,0.000012436000,   0.42472,
,,,0.000012440000,   0.42496,
,,,0.000012444000,   0.42488,
,,,0.000012448000,   0.42480,
,,,0.000012452000,   0.42488,
,,,0.000012456000,   0.42504,
,,,0.000012460000,   0.42488,
,,,0.000012464000,   0.42528,
,,,0.000012468000,   0.42584,
,,,0.000012472000,   0.42592,
,,,0.000012476000,   0.42608,
,,,0.000012480000,   0.42576,
,,,0.000012484000,   0.42592,
,,,0.000012488000,   0.42584,
,,,0.000012492000,   0.42592,
,,,0.000012496000,   0.42560,
,,,0.000012500000,   0.42536,
,,,0.000012504000,   0.42536,
,,,0.000012508000,   0.42488,
,,,0.000012512000,   0.42472,
,,,0.000012516000,   0.42448,
,,,0.000012520000,   0.42464,
,,,0.000012524000,   0.42472,
,,,0.000012528000,   0.42456,
,,,0.000012532000,   0.42440,
