semiconductor/data/shockley_haynes/TEK0034.CSV

Record Length,2.500000e+03,,   0.000349000000,   0.07504,
Sample Interval,2.000000e-08,,   0.000349020000,   0.07504,
Trigger Point,-1.745000000000e+04,,   0.000349040000,   0.07512,
,,,   0.000349060000,   0.07512,
,,,   0.000349080000,   0.07504,
,,,   0.000349100000,   0.07512,
Source,CH1,,   0.000349120000,   0.07504,
Vertical Units,V,,   0.000349140000,   0.07512,
Vertical Scale,2.000000e-03,,   0.000349160000,   0.07512,
Vertical Offset,-8.024000e-02,,   0.000349180000,   0.07512,
Horizontal Units,s,,   0.000349200000,   0.07512,
Horizontal Scale,5.000000e-06,,   0.000349220000,   0.07504,
Pt Fmt,Y,,   0.000349240000,   0.07512,
Yzero,0.000000e+00,,   0.000349260000,   0.07512,
Probe Atten,1.000000e+00,,   0.000349280000,   0.07512,
Model Number,TDS1002B,,   0.000349300000,   0.07504,
Serial Number,C052304,,   0.000349320000,   0.07512,
Firmware Version,FV:v22.01,,   0.000349340000,   0.07512,
,,,0.000349360000,   0.07512,
,,,0.000349380000,   0.07504,
,,,0.000349400000,   0.07504,
,,,0.000349420000,   0.07512,
,,,0.000349440000,   0.07512,
,,,0.000349460000,   0.07512,
,,,0.000349480000,   0.07512,
,,,0.000349500000,   0.07512,
,,,0.000349520000,   0.07512,
,,,0.000349540000,   0.07512,
,,,0.000349560000,   0.07512,
,,,0.000349580000,   0.07504,
,,,0.000349600000,   0.07512,
,,,0.000349620000,   0.07512,
,,,0.000349640000,   0.07504,
,,,0.000349660000,   0.07512,
,,,0.000349680000,   0.07504,
,,,0.000349700000,   0.07496,
,,,0.000349720000,   0.07512,
,,,0.000349740000,   0.07512,
,,,0.000349760000,   0.07512,
,,,0.000349780000,   0.07504,
,,,0.000349800000,   0.07504,
,,,0.000349820000,   0.07504,
,,,0.000349840000,   0.07504,
,,,0.000349860000,   0.07504,
,,,0.000349880000,   0.07504,
,,,0.000349900000,   0.07504,
,,,0.000349920000,   0.07504,
,,,0.000349940000,   0.07504,
,,,0.000349960000,   0.07504,
,,,0.000349980000,   0.07504,
,,,0.000350000000,   0.07504,
,,,0.000350020000,   0.07504,
,,,0.000350040000,   0.07504,
,,,0.000350060000,   0.07504,
,,,0.000350080000,   0.07504,
,,,0.000350100000,   0.07504,
,,,0.000350120000,   0.07504,
,,,0.000350140000,   0.07504,
,,,0.000350160000,   0.07504,
,,,0.000350180000,   0.07504,
,,,0.000350200000,   0.07504,
,,,0.000350220000,   0.07504,
,,,0.000350240000,   0.07504,
,,,0.000350260000,   0.07504,
,,,0.000350280000,   0.07504,
,,,0.000350300000,   0.07504,
,,,0.000350320000,   0.07504,
,,,0.000350340000,   0.07504,
,,,0.000350360000,   0.07496,
,,,0.000350380000,   0.07504,
,,,0.000350400000,   0.07504,
,,,0.000350420000,   0.07504,
,,,0.000350440000,   0.07504,
,,,0.000350460000,   0.07504,
,,,0.000350480000,   0.07504,
,,,0.000350500000,   0.07504,
,,,0.000350520000,   0.07504,
,,,0.000350540000,   0.07504,
,,,0.000350560000,   0.07504,
,,,0.000350580000,   0.07504,
,,,0.000350600000,   0.07504,
,,,0.000350620000,   0.07504,
,,,0.000350640000,   0.07504,
,,,0.000350660000,   0.07504,
,,,0.000350680000,   0.07504,
,,,0.000350700000,   0.07504,
,,,0.000350720000,   0.07504,
,,,0.000350740000,   0.07504,
,,,0.000350760000,   0.07504,
,,,0.000350780000,   0.07504,
,,,0.000350800000,   0.07512,
,,,0.000350820000,   0.07504,
,,,0.000350840000,   0.07504,
,,,0.000350860000,   0.07512,
,,,0.000350880000,   0.07512,
,,,0.000350900000,   0.07504,
,,,0.000350920000,   0.07504,
,,,0.000350940000,   0.07504,
,,,0.000350960000,   0.07512,
,,,0.000350980000,   0.07504,
,,,0.000351000000,   0.07504,
,,,0.000351020000,   0.07504,
,,,0.000351040000,   0.07512,
,,,0.000351060000,   0.07512,
,,,0.000351080000,   0.07512,
,,,0.000351100000,   0.07504,
,,,0.000351120000,   0.07504,
,,,0.000351140000,   0.07512,
,,,0.000351160000,   0.07512,
,,,0.000351180000,   0.07512,
,,,0.000351200000,   0.07512,
,,,0.000351220000,   0.07512,
,,,0.000351240000,   0.07512,
,,,0.000351260000,   0.07512,
,,,0.000351280000,   0.07512,
,,,0.000351300000,   0.07504,
,,,0.000351320000,   0.07512,
,,,0.000351340000,   0.07512,
,,,0.000351360000,   0.07512,
,,,0.000351380000,   0.07512,
,,,0.000351400000,   0.07512,
,,,0.000351420000,   0.07512,
,,,0.000351440000,   0.07512,
,,,0.000351460000,   0.07512,
,,,0.000351480000,   0.07504,
,,,0.000351500000,   0.07504,
,,,0.000351520000,   0.07512,
,,,0.000351540000,   0.07504,
,,,0.000351560000,   0.07512,
,,,0.000351580000,   0.07504,
,,,0.000351600000,   0.07512,
,,,0.000351620000,   0.07512,
,,,0.000351640000,   0.07512,
,,,0.000351660000,   0.07504,
,,,0.000351680000,   0.07504,
,,,0.000351700000,   0.07512,
,,,0.000351720000,   0.07520,
,,,0.000351740000,   0.07512,
,,,0.000351760000,   0.07512,
,,,0.000351780000,   0.07512,
,,,0.000351800000,   0.07512,
,,,0.000351820000,   0.07512,
,,,0.000351840000,   0.07512,
,,,0.000351860000,   0.07504,
,,,0.000351880000,   0.07512,
,,,0.000351900000,   0.07512,
,,,0.000351920000,   0.07512,
,,,0.000351940000,   0.07512,
,,,0.000351960000,   0.07504,
,,,0.000351980000,   0.07504,
,,,0.000352000000,   0.07512,
,,,0.000352020000,   0.07512,
,,,0.000352040000,   0.07512,
,,,0.000352060000,   0.07512,
,,,0.000352080000,   0.07504,
,,,0.000352100000,   0.07504,
,,,0.000352120000,   0.07512,
,,,0.000352140000,   0.07512,
,,,0.000352160000,   0.07512,
,,,0.000352180000,   0.07512,
,,,0.000352200000,   0.07512,
,,,0.000352220000,   0.07512,
,,,0.000352240000,   0.07512,
,,,0.000352260000,   0.07512,
,,,0.000352280000,   0.07504,
,,,0.000352300000,   0.07512,
,,,0.000352320000,   0.07512,
,,,0.000352340000,   0.07512,
,,,0.000352360000,   0.07504,
,,,0.000352380000,   0.07504,
,,,0.000352400000,   0.07512,
,,,0.000352420000,   0.07512,
,,,0.000352440000,   0.07512,
,,,0.000352460000,   0.07512,
,,,0.000352480000,   0.07512,
,,,0.000352500000,   0.07512,
,,,0.000352520000,   0.07512,
,,,0.000352540000,   0.07504,
,,,0.000352560000,   0.07504,
,,,0.000352580000,   0.07512,
,,,0.000352600000,   0.07512,
,,,0.000352620000,   0.07504,
,,,0.000352640000,   0.07504,
,,,0.000352660000,   0.07512,
,,,0.000352680000,   0.07512,
,,,0.000352700000,   0.07512,
,,,0.000352720000,   0.07512,
,,,0.000352740000,   0.07512,
,,,0.000352760000,   0.07512,
,,,0.000352780000,   0.07504,
,,,0.000352800000,   0.07512,
,,,0.000352820000,   0.07504,
,,,0.000352840000,   0.07504,
,,,0.000352860000,   0.07512,
,,,0.000352880000,   0.07512,
,,,0.000352900000,   0.07504,
,,,0.000352920000,   0.07504,
,,,0.000352940000,   0.07504,
,,,0.000352960000,   0.07512,
,,,0.000352980000,   0.07512,
,,,0.000353000000,   0.07512,
,,,0.000353020000,   0.07504,
,,,0.000353040000,   0.07512,
,,,0.000353060000,   0.07512,
,,,0.000353080000,   0.07512,
,,,0.000353100000,   0.07512,
,,,0.000353120000,   0.07504,
,,,0.000353140000,   0.07504,
,,,0.000353160000,   0.07512,
,,,0.000353180000,   0.07512,
,,,0.000353200000,   0.07504,
,,,0.000353220000,   0.07504,
,,,0.000353240000,   0.07504,
,,,0.000353260000,   0.07512,
,,,0.000353280000,   0.07504,
,,,0.000353300000,   0.07504,
,,,0.000353320000,   0.07504,
,,,0.000353340000,   0.07504,
,,,0.000353360000,   0.07512,
,,,0.000353380000,   0.07512,
,,,0.000353400000,   0.07512,
,,,0.000353420000,   0.07504,
,,,0.000353440000,   0.07512,
,,,0.000353460000,   0.07512,
,,,0.000353480000,   0.07504,
,,,0.000353500000,   0.07504,
,,,0.000353520000,   0.07512,
,,,0.000353540000,   0.07504,
,,,0.000353560000,   0.07512,
,,,0.000353580000,   0.07512,
,,,0.000353600000,   0.07504,
,,,0.000353620000,   0.07504,
,,,0.000353640000,   0.07504,
,,,0.000353660000,   0.07504,
,,,0.000353680000,   0.07504,
,,,0.000353700000,   0.07512,
,,,0.000353720000,   0.07504,
,,,0.000353740000,   0.07504,
,,,0.000353760000,   0.07504,
,,,0.000353780000,   0.07512,
,,,0.000353800000,   0.07512,
,,,0.000353820000,   0.07512,
,,,0.000353840000,   0.07512,
,,,0.000353860000,   0.07504,
,,,0.000353880000,   0.07512,
,,,0.000353900000,   0.07504,
,,,0.000353920000,   0.07504,
,,,0.000353940000,   0.07512,
,,,0.000353960000,   0.07512,
,,,0.000353980000,   0.07512,
,,,0.000354000000,   0.07512,
,,,0.000354020000,   0.07504,
,,,0.000354040000,   0.07512,
,,,0.000354060000,   0.07512,
,,,0.000354080000,   0.07504,
,,,0.000354100000,   0.07512,
,,,0.000354120000,   0.07512,
,,,0.000354140000,   0.07504,
,,,0.000354160000,   0.07512,
,,,0.000354180000,   0.07512,
,,,0.000354200000,   0.07512,
,,,0.000354220000,   0.07512,
,,,0.000354240000,   0.07512,
,,,0.000354260000,   0.07504,
,,,0.000354280000,   0.07512,
,,,0.000354300000,   0.07512,
,,,0.000354320000,   0.07504,
,,,0.000354340000,   0.07512,
,,,0.000354360000,   0.07504,
,,,0.000354380000,   0.07512,
,,,0.000354400000,   0.07512,
,,,0.000354420000,   0.07512,
,,,0.000354440000,   0.07512,
,,,0.000354460000,   0.07512,
,,,0.000354480000,   0.07512,
,,,0.000354500000,   0.07512,
,,,0.000354520000,   0.07512,
,,,0.000354540000,   0.07504,
,,,0.000354560000,   0.07504,
,,,0.000354580000,   0.07504,
,,,0.000354600000,   0.07504,
,,,0.000354620000,   0.07512,
,,,0.000354640000,   0.07504,
,,,0.000354660000,   0.07512,
,,,0.000354680000,   0.07512,
,,,0.000354700000,   0.07504,
,,,0.000354720000,   0.07504,
,,,0.000354740000,   0.07504,
,,,0.000354760000,   0.07504,
,,,0.000354780000,   0.07512,
,,,0.000354800000,   0.07512,
,,,0.000354820000,   0.07504,
,,,0.000354840000,   0.07504,
,,,0.000354860000,   0.07512,
,,,0.000354880000,   0.07504,
,,,0.000354900000,   0.07504,
,,,0.000354920000,   0.07512,
,,,0.000354940000,   0.07512,
,,,0.000354960000,   0.07504,
,,,0.000354980000,   0.07512,
,,,0.000355000000,   0.07504,
,,,0.000355020000,   0.07512,
,,,0.000355040000,   0.07512,
,,,0.000355060000,   0.07504,
,,,0.000355080000,   0.07504,
,,,0.000355100000,   0.07512,
,,,0.000355120000,   0.07512,
,,,0.000355140000,   0.07512,
,,,0.000355160000,   0.07504,
,,,0.000355180000,   0.07504,
,,,0.000355200000,   0.07504,
,,,0.000355220000,   0.07512,
,,,0.000355240000,   0.07504,
,,,0.000355260000,   0.07504,
,,,0.000355280000,   0.07504,
,,,0.000355300000,   0.07512,
,,,0.000355320000,   0.07512,
,,,0.000355340000,   0.07504,
,,,0.000355360000,   0.07512,
,,,0.000355380000,   0.07512,
,,,0.000355400000,   0.07512,
,,,0.000355420000,   0.07512,
,,,0.000355440000,   0.07504,
,,,0.000355460000,   0.07512,
,,,0.000355480000,   0.07512,
,,,0.000355500000,   0.07512,
,,,0.000355520000,   0.07512,
,,,0.000355540000,   0.07504,
,,,0.000355560000,   0.07512,
,,,0.000355580000,   0.07512,
,,,0.000355600000,   0.07512,
,,,0.000355620000,   0.07512,
,,,0.000355640000,   0.07512,
,,,0.000355660000,   0.07512,
,,,0.000355680000,   0.07504,
,,,0.000355700000,   0.07512,
,,,0.000355720000,   0.07504,
,,,0.000355740000,   0.07512,
,,,0.000355760000,   0.07504,
,,,0.000355780000,   0.07512,
,,,0.000355800000,   0.07512,
,,,0.000355820000,   0.07512,
,,,0.000355840000,   0.07512,
,,,0.000355860000,   0.07512,
,,,0.000355880000,   0.07504,
,,,0.000355900000,   0.07512,
,,,0.000355920000,   0.07512,
,,,0.000355940000,   0.07504,
,,,0.000355960000,   0.07512,
,,,0.000355980000,   0.07504,
,,,0.000356000000,   0.07504,
,,,0.000356020000,   0.07504,
,,,0.000356040000,   0.07504,
,,,0.000356060000,   0.07504,
,,,0.000356080000,   0.07504,
,,,0.000356100000,   0.07504,
,,,0.000356120000,   0.07504,
,,,0.000356140000,   0.07512,
,,,0.000356160000,   0.07504,
,,,0.000356180000,   0.07504,
,,,0.000356200000,   0.07504,
,,,0.000356220000,   0.07512,
,,,0.000356240000,   0.07504,
,,,0.000356260000,   0.07504,
,,,0.000356280000,   0.07504,
,,,0.000356300000,   0.07504,
,,,0.000356320000,   0.07504,
,,,0.000356340000,   0.07504,
,,,0.000356360000,   0.07504,
,,,0.000356380000,   0.07504,
,,,0.000356400000,   0.07504,
,,,0.000356420000,   0.07512,
,,,0.000356440000,   0.07504,
,,,0.000356460000,   0.07504,
,,,0.000356480000,   0.07504,
,,,0.000356500000,   0.07504,
,,,0.000356520000,   0.07504,
,,,0.000356540000,   0.07504,
,,,0.000356560000,   0.07504,
,,,0.000356580000,   0.07504,
,,,0.000356600000,   0.07512,
,,,0.000356620000,   0.07512,
,,,0.000356640000,   0.07504,
,,,0.000356660000,   0.07504,
,,,0.000356680000,   0.07504,
,,,0.000356700000,   0.07504,
,,,0.000356720000,   0.07504,
,,,0.000356740000,   0.07504,
,,,0.000356760000,   0.07504,
,,,0.000356780000,   0.07504,
,,,0.000356800000,   0.07504,
,,,0.000356820000,   0.07504,
,,,0.000356840000,   0.07504,
,,,0.000356860000,   0.07504,
,,,0.000356880000,   0.07504,
,,,0.000356900000,   0.07504,
,,,0.000356920000,   0.07504,
,,,0.000356940000,   0.07504,
,,,0.000356960000,   0.07504,
,,,0.000356980000,   0.07504,
,,,0.000357000000,   0.07504,
,,,0.000357020000,   0.07504,
,,,0.000357040000,   0.07504,
,,,0.000357060000,   0.07504,
,,,0.000357080000,   0.07504,
,,,0.000357100000,   0.07512,
,,,0.000357120000,   0.07504,
,,,0.000357140000,   0.07512,
,,,0.000357160000,   0.07512,
,,,0.000357180000,   0.07504,
,,,0.000357200000,   0.07504,
,,,0.000357220000,   0.07512,
,,,0.000357240000,   0.07512,
,,,0.000357260000,   0.07512,
,,,0.000357280000,   0.07504,
,,,0.000357300000,   0.07504,
,,,0.000357320000,   0.07512,
,,,0.000357340000,   0.07512,
,,,0.000357360000,   0.07512,
,,,0.000357380000,   0.07504,
,,,0.000357400000,   0.07512,
,,,0.000357420000,   0.07512,
,,,0.000357440000,   0.07512,
,,,0.000357460000,   0.07504,
,,,0.000357480000,   0.07504,
,,,0.000357500000,   0.07512,
,,,0.000357520000,   0.07520,
,,,0.000357540000,   0.07520,
,,,0.000357560000,   0.07504,
,,,0.000357580000,   0.07480,
,,,0.000357600000,   0.07448,
,,,0.000357620000,   0.07472,
,,,0.000357640000,   0.07472,
,,,0.000357660000,   0.07456,
,,,0.000357680000,   0.07448,
,,,0.000357700000,   0.07456,
,,,0.000357720000,   0.07472,
,,,0.000357740000,   0.07472,
,,,0.000357760000,   0.07464,
,,,0.000357780000,   0.07472,
,,,0.000357800000,   0.07488,
,,,0.000357820000,   0.07496,
,,,0.000357840000,   0.07504,
,,,0.000357860000,   0.07520,
,,,0.000357880000,   0.07528,
,,,0.000357900000,   0.07536,
,,,0.000357920000,   0.07552,
,,,0.000357940000,   0.07560,
,,,0.000357960000,   0.07576,
,,,0.000357980000,   0.07584,
,,,0.000358000000,   0.07592,
,,,0.000358020000,   0.07608,
,,,0.000358040000,   0.07608,
,,,0.000358060000,   0.07624,
,,,0.000358080000,   0.07624,
,,,0.000358100000,   0.07632,
,,,0.000358120000,   0.07632,
,,,0.000358140000,   0.07632,
,,,0.000358160000,   0.07640,
,,,0.000358180000,   0.07632,
,,,0.000358200000,   0.07640,
,,,0.000358220000,   0.07640,
,,,0.000358240000,   0.07640,
,,,0.000358260000,   0.07632,
,,,0.000358280000,   0.07632,
,,,0.000358300000,   0.07624,
,,,0.000358320000,   0.07624,
,,,0.000358340000,   0.07616,
,,,0.000358360000,   0.07616,
,,,0.000358380000,   0.07608,
,,,0.000358400000,   0.07600,
,,,0.000358420000,   0.07592,
,,,0.000358440000,   0.07592,
,,,0.000358460000,   0.07592,
,,,0.000358480000,   0.07584,
,,,0.000358500000,   0.07568,
,,,0.000358520000,   0.07576,
,,,0.000358540000,   0.07576,
,,,0.000358560000,   0.07560,
,,,0.000358580000,   0.07552,
,,,0.000358600000,   0.07544,
,,,0.000358620000,   0.07544,
,,,0.000358640000,   0.07544,
,,,0.000358660000,   0.07544,
,,,0.000358680000,   0.07536,
,,,0.000358700000,   0.07536,
,,,0.000358720000,   0.07536,
,,,0.000358740000,   0.07528,
,,,0.000358760000,   0.07528,
,,,0.000358780000,   0.07528,
,,,0.000358800000,   0.07528,
,,,0.000358820000,   0.07520,
,,,0.000358840000,   0.07520,
,,,0.000358860000,   0.07512,
,,,0.000358880000,   0.07512,
,,,0.000358900000,   0.07520,
,,,0.000358920000,   0.07512,
,,,0.000358940000,   0.07512,
,,,0.000358960000,   0.07512,
,,,0.000358980000,   0.07512,
,,,0.000359000000,   0.07512,
,,,0.000359020000,   0.07512,
,,,0.000359040000,   0.07512,
,,,0.000359060000,   0.07512,
,,,0.000359080000,   0.07520,
,,,0.000359100000,   0.07512,
,,,0.000359120000,   0.07512,
,,,0.000359140000,   0.07520,
,,,0.000359160000,   0.07520,
,,,0.000359180000,   0.07512,
,,,0.000359200000,   0.07512,
,,,0.000359220000,   0.07520,
,,,0.000359240000,   0.07528,
,,,0.000359260000,   0.07520,
,,,0.000359280000,   0.07520,
,,,0.000359300000,   0.07520,
,,,0.000359320000,   0.07528,
,,,0.000359340000,   0.07528,
,,,0.000359360000,   0.07528,
,,,0.000359380000,   0.07528,
,,,0.000359400000,   0.07528,
,,,0.000359420000,   0.07528,
,,,0.000359440000,   0.07528,
,,,0.000359460000,   0.07528,
,,,0.000359480000,   0.07536,
,,,0.000359500000,   0.07536,
,,,0.000359520000,   0.07536,
,,,0.000359540000,   0.07536,
,,,0.000359560000,   0.07536,
,,,0.000359580000,   0.07536,
,,,0.000359600000,   0.07536,
,,,0.000359620000,   0.07544,
,,,0.000359640000,   0.07544,
,,,0.000359660000,   0.07544,
,,,0.000359680000,   0.07544,
,,,0.000359700000,   0.07544,
,,,0.000359720000,   0.07544,
,,,0.000359740000,   0.07544,
,,,0.000359760000,   0.07552,
,,,0.000359780000,   0.07552,
,,,0.000359800000,   0.07552,
,,,0.000359820000,   0.07552,
,,,0.000359840000,   0.07552,
,,,0.000359860000,   0.07544,
,,,0.000359880000,   0.07552,
,,,0.000359900000,   0.07552,
,,,0.000359920000,   0.07552,
,,,0.000359940000,   0.07552,
,,,0.000359960000,   0.07560,
,,,0.000359980000,   0.07560,
,,,0.000360000000,   0.07552,
,,,0.000360020000,   0.07552,
,,,0.000360040000,   0.07560,
,,,0.000360060000,   0.07560,
,,,0.000360080000,   0.07552,
,,,0.000360100000,   0.07560,
,,,0.000360120000,   0.07552,
,,,0.000360140000,   0.07560,
,,,0.000360160000,   0.07560,
,,,0.000360180000,   0.07560,
,,,0.000360200000,   0.07560,
,,,0.000360220000,   0.07560,
,,,0.000360240000,   0.07568,
,,,0.000360260000,   0.07568,
,,,0.000360280000,   0.07560,
,,,0.000360300000,   0.07560,
,,,0.000360320000,   0.07568,
,,,0.000360340000,   0.07568,
,,,0.000360360000,   0.07560,
,,,0.000360380000,   0.07568,
,,,0.000360400000,   0.07568,
,,,0.000360420000,   0.07568,
,,,0.000360440000,   0.07568,
,,,0.000360460000,   0.07576,
,,,0.000360480000,   0.07568,
,,,0.000360500000,   0.07576,
,,,0.000360520000,   0.07584,
,,,0.000360540000,   0.07576,
,,,0.000360560000,   0.07576,
,,,0.000360580000,   0.07584,
,,,0.000360600000,   0.07584,
,,,0.000360620000,   0.07584,
,,,0.000360640000,   0.07584,
,,,0.000360660000,   0.07584,
,,,0.000360680000,   0.07592,
,,,0.000360700000,   0.07592,
,,,0.000360720000,   0.07600,
,,,0.000360740000,   0.07600,
,,,0.000360760000,   0.07600,
,,,0.000360780000,   0.07608,
,,,0.000360800000,   0.07608,
,,,0.000360820000,   0.07616,
,,,0.000360840000,   0.07616,
,,,0.000360860000,   0.07616,
,,,0.000360880000,   0.07624,
,,,0.000360900000,   0.07624,
,,,0.000360920000,   0.07632,
,,,0.000360940000,   0.07632,
,,,0.000360960000,   0.07640,
,,,0.000360980000,   0.07640,
,,,0.000361000000,   0.07640,
,,,0.000361020000,   0.07656,
,,,0.000361040000,   0.07656,
,,,0.000361060000,   0.07664,
,,,0.000361080000,   0.07664,
,,,0.000361100000,   0.07664,
,,,0.000361120000,   0.07672,
,,,0.000361140000,   0.07680,
,,,0.000361160000,   0.07688,
,,,0.000361180000,   0.07688,
,,,0.000361200000,   0.07696,
,,,0.000361220000,   0.07704,
,,,0.000361240000,   0.07704,
,,,0.000361260000,   0.07712,
,,,0.000361280000,   0.07720,
,,,0.000361300000,   0.07728,
,,,0.000361320000,   0.07728,
,,,0.000361340000,   0.07736,
,,,0.000361360000,   0.07744,
,,,0.000361380000,   0.07752,
,,,0.000361400000,   0.07760,
,,,0.000361420000,   0.07760,
,,,0.000361440000,   0.07768,
,,,0.000361460000,   0.07776,
,,,0.000361480000,   0.07784,
,,,0.000361500000,   0.07784,
,,,0.000361520000,   0.07784,
,,,0.000361540000,   0.07808,
,,,0.000361560000,   0.07816,
,,,0.000361580000,   0.07816,
,,,0.000361600000,   0.07816,
,,,0.000361620000,   0.07832,
,,,0.000361640000,   0.07840,
,,,0.000361660000,   0.07848,
,,,0.000361680000,   0.07856,
,,,0.000361700000,   0.07856,
,,,0.000361720000,   0.07864,
,,,0.000361740000,   0.07872,
,,,0.000361760000,   0.07880,
,,,0.000361780000,   0.07888,
,,,0.000361800000,   0.07896,
,,,0.000361820000,   0.07896,
,,,0.000361840000,   0.07912,
,,,0.000361860000,   0.07920,
,,,0.000361880000,   0.07920,
,,,0.000361900000,   0.07928,
,,,0.000361920000,   0.07928,
,,,0.000361940000,   0.07944,
,,,0.000361960000,   0.07944,
,,,0.000361980000,   0.07952,
,,,0.000362000000,   0.07960,
,,,0.000362020000,   0.07968,
,,,0.000362040000,   0.07968,
,,,0.000362060000,   0.07968,
