semiconductor/data/shockley_haynes/TEK0047.CSV

Record Length,2.500000e+03,,   0.000316000000,   0.01376,
Sample Interval,4.000000e-08,,   0.000316040000,   0.01344,
Trigger Point,-7.900000000000e+03,,   0.000316080000,   0.01360,
,,,   0.000316120000,   0.01392,
,,,   0.000316160000,   0.01376,
,,,   0.000316200000,   0.01368,
Source,CH1,,   0.000316240000,   0.01384,
Vertical Units,V,,   0.000316280000,   0.01400,
Vertical Scale,2.000000e-03,,   0.000316320000,   0.01400,
Vertical Offset,-1.440000e-02,,   0.000316360000,   0.01384,
Horizontal Units,s,,   0.000316400000,   0.01400,
Horizontal Scale,1.000000e-05,,   0.000316440000,   0.01352,
Pt Fmt,Y,,   0.000316480000,   0.01376,
Yzero,0.000000e+00,,   0.000316520000,   0.01360,
Probe Atten,1.000000e+00,,   0.000316560000,   0.01352,
Model Number,TDS1002B,,   0.000316600000,   0.01376,
Serial Number,C052304,,   0.000316640000,   0.01312,
Firmware Version,FV:v22.01,,   0.000316680000,   0.01376,
,,,0.000316720000,   0.01384,
,,,0.000316760000,   0.01336,
,,,0.000316800000,   0.01368,
,,,0.000316840000,   0.01384,
,,,0.000316880000,   0.01352,
,,,0.000316920000,   0.01432,
,,,0.000316960000,   0.01376,
,,,0.000317000000,   0.01368,
,,,0.000317040000,   0.01384,
,,,0.000317080000,   0.01368,
,,,0.000317120000,   0.01352,
,,,0.000317160000,   0.01400,
,,,0.000317200000,   0.01328,
,,,0.000317240000,   0.01320,
,,,0.000317280000,   0.01312,
,,,0.000317320000,   0.01376,
,,,0.000317360000,   0.01328,
,,,0.000317400000,   0.01384,
,,,0.000317440000,   0.01344,
,,,0.000317480000,   0.01360,
,,,0.000317520000,   0.01376,
,,,0.000317560000,   0.01360,
,,,0.000317600000,   0.01320,
,,,0.000317640000,   0.01360,
,,,0.000317680000,   0.01344,
,,,0.000317720000,   0.01376,
,,,0.000317760000,   0.01320,
,,,0.000317800000,   0.01328,
,,,0.000317840000,   0.01352,
,,,0.000317880000,   0.01376,
,,,0.000317920000,   0.01296,
,,,0.000317960000,   0.01344,
,,,0.000318000000,   0.01408,
,,,0.000318040000,   0.01256,
,,,0.000318080000,   0.01352,
,,,0.000318120000,   0.01360,
,,,0.000318160000,   0.01376,
,,,0.000318200000,   0.01352,
,,,0.000318240000,   0.01344,
,,,0.000318280000,   0.01352,
,,,0.000318320000,   0.01352,
,,,0.000318360000,   0.01392,
,,,0.000318400000,   0.01352,
,,,0.000318440000,   0.01296,
,,,0.000318480000,   0.01328,
,,,0.000318520000,   0.01352,
,,,0.000318560000,   0.01360,
,,,0.000318600000,   0.01376,
,,,0.000318640000,   0.01280,
,,,0.000318680000,   0.01408,
,,,0.000318720000,   0.01344,
,,,0.000318760000,   0.01344,
,,,0.000318800000,   0.01352,
,,,0.000318840000,   0.01368,
,,,0.000318880000,   0.01376,
,,,0.000318920000,   0.01304,
,,,0.000318960000,   0.01384,
,,,0.000319000000,   0.01384,
,,,0.000319040000,   0.01392,
,,,0.000319080000,   0.01400,
,,,0.000319120000,   0.01392,
,,,0.000319160000,   0.01344,
,,,0.000319200000,   0.01432,
,,,0.000319240000,   0.01352,
,,,0.000319280000,   0.01408,
,,,0.000319320000,   0.01376,
,,,0.000319360000,   0.01376,
,,,0.000319400000,   0.01408,
,,,0.000319440000,   0.01360,
,,,0.000319480000,   0.01352,
,,,0.000319520000,   0.01360,
,,,0.000319560000,   0.01352,
,,,0.000319600000,   0.01376,
,,,0.000319640000,   0.01432,
,,,0.000319680000,   0.01400,
,,,0.000319720000,   0.01344,
,,,0.000319760000,   0.01368,
,,,0.000319800000,   0.01392,
,,,0.000319840000,   0.01384,
,,,0.000319880000,   0.01320,
,,,0.000319920000,   0.01376,
,,,0.000319960000,   0.01344,
,,,0.000320000000,   0.01352,
,,,0.000320040000,   0.01352,
,,,0.000320080000,   0.01360,
,,,0.000320120000,   0.01312,
,,,0.000320160000,   0.01304,
,,,0.000320200000,   0.01368,
,,,0.000320240000,   0.01320,
,,,0.000320280000,   0.01392,
,,,0.000320320000,   0.01344,
,,,0.000320360000,   0.01336,
,,,0.000320400000,   0.01400,
,,,0.000320440000,   0.01352,
,,,0.000320480000,   0.01328,
,,,0.000320520000,   0.01312,
,,,0.000320560000,   0.01360,
,,,0.000320600000,   0.01312,
,,,0.000320640000,   0.01344,
,,,0.000320680000,   0.01328,
,,,0.000320720000,   0.01312,
,,,0.000320760000,   0.01368,
,,,0.000320800000,   0.01312,
,,,0.000320840000,   0.01336,
,,,0.000320880000,   0.01384,
,,,0.000320920000,   0.01296,
,,,0.000320960000,   0.01320,
,,,0.000321000000,   0.01352,
,,,0.000321040000,   0.01376,
,,,0.000321080000,   0.01360,
,,,0.000321120000,   0.01280,
,,,0.000321160000,   0.01352,
,,,0.000321200000,   0.01336,
,,,0.000321240000,   0.01320,
,,,0.000321280000,   0.01360,
,,,0.000321320000,   0.01312,
,,,0.000321360000,   0.01288,
,,,0.000321400000,   0.01352,
,,,0.000321440000,   0.01344,
,,,0.000321480000,   0.01336,
,,,0.000321520000,   0.01360,
,,,0.000321560000,   0.01304,
,,,0.000321600000,   0.01344,
,,,0.000321640000,   0.01352,
,,,0.000321680000,   0.01320,
,,,0.000321720000,   0.01392,
,,,0.000321760000,   0.01304,
,,,0.000321800000,   0.01400,
,,,0.000321840000,   0.01368,
,,,0.000321880000,   0.01352,
,,,0.000321920000,   0.01456,
,,,0.000321960000,   0.01376,
,,,0.000322000000,   0.01352,
,,,0.000322040000,   0.01384,
,,,0.000322080000,   0.01408,
,,,0.000322120000,   0.01384,
,,,0.000322160000,   0.01368,
,,,0.000322200000,   0.01416,
,,,0.000322240000,   0.01384,
,,,0.000322280000,   0.01376,
,,,0.000322320000,   0.01344,
,,,0.000322360000,   0.01384,
,,,0.000322400000,   0.01328,
,,,0.000322440000,   0.01408,
,,,0.000322480000,   0.01392,
,,,0.000322520000,   0.01376,
,,,0.000322560000,   0.01376,
,,,0.000322600000,   0.01336,
,,,0.000322640000,   0.01432,
,,,0.000322680000,   0.01320,
,,,0.000322720000,   0.01416,
,,,0.000322760000,   0.01384,
,,,0.000322800000,   0.01440,
,,,0.000322840000,   0.01376,
,,,0.000322880000,   0.01352,
,,,0.000322920000,   0.01376,
,,,0.000322960000,   0.01408,
,,,0.000323000000,   0.01376,
,,,0.000323040000,   0.01296,
,,,0.000323080000,   0.01352,
,,,0.000323120000,   0.01416,
,,,0.000323160000,   0.01392,
,,,0.000323200000,   0.01424,
,,,0.000323240000,   0.01416,
,,,0.000323280000,   0.01368,
,,,0.000323320000,   0.01464,
,,,0.000323360000,   0.01408,
,,,0.000323400000,   0.01408,
,,,0.000323440000,   0.01376,
,,,0.000323480000,   0.01352,
,,,0.000323520000,   0.01416,
,,,0.000323560000,   0.01376,
,,,0.000323600000,   0.01408,
,,,0.000323640000,   0.01368,
,,,0.000323680000,   0.01352,
,,,0.000323720000,   0.01432,
,,,0.000323760000,   0.01392,
,,,0.000323800000,   0.01408,
,,,0.000323840000,   0.01360,
,,,0.000323880000,   0.01408,
,,,0.000323920000,   0.01368,
,,,0.000323960000,   0.01384,
,,,0.000324000000,   0.01336,
,,,0.000324040000,   0.01376,
,,,0.000324080000,   0.01392,
,,,0.000324120000,   0.01384,
,,,0.000324160000,   0.01384,
,,,0.000324200000,   0.01464,
,,,0.000324240000,   0.01376,
,,,0.000324280000,   0.01416,
,,,0.000324320000,   0.01320,
,,,0.000324360000,   0.01424,
,,,0.000324400000,   0.01432,
,,,0.000324440000,   0.01376,
,,,0.000324480000,   0.01424,
,,,0.000324520000,   0.01416,
,,,0.000324560000,   0.01416,
,,,0.000324600000,   0.01384,
,,,0.000324640000,   0.01440,
,,,0.000324680000,   0.01368,
,,,0.000324720000,   0.01416,
,,,0.000324760000,   0.01352,
,,,0.000324800000,   0.01368,
,,,0.000324840000,   0.01432,
,,,0.000324880000,   0.01352,
,,,0.000324920000,   0.01376,
,,,0.000324960000,   0.01368,
,,,0.000325000000,   0.01384,
,,,0.000325040000,   0.01464,
,,,0.000325080000,   0.01328,
,,,0.000325120000,   0.01416,
,,,0.000325160000,   0.01288,
,,,0.000325200000,   0.01376,
,,,0.000325240000,   0.01368,
,,,0.000325280000,   0.01424,
,,,0.000325320000,   0.01376,
,,,0.000325360000,   0.01416,
,,,0.000325400000,   0.01352,
,,,0.000325440000,   0.01368,
,,,0.000325480000,   0.01392,
,,,0.000325520000,   0.01376,
,,,0.000325560000,   0.01432,
,,,0.000325600000,   0.01344,
,,,0.000325640000,   0.01408,
,,,0.000325680000,   0.01392,
,,,0.000325720000,   0.01352,
,,,0.000325760000,   0.01320,
,,,0.000325800000,   0.01424,
,,,0.000325840000,   0.01288,
,,,0.000325880000,   0.01368,
,,,0.000325920000,   0.01320,
,,,0.000325960000,   0.01344,
,,,0.000326000000,   0.01344,
,,,0.000326040000,   0.01304,
,,,0.000326080000,   0.01416,
,,,0.000326120000,   0.01376,
,,,0.000326160000,   0.01432,
,,,0.000326200000,   0.01384,
,,,0.000326240000,   0.01392,
,,,0.000326280000,   0.01416,
,,,0.000326320000,   0.01432,
,,,0.000326360000,   0.01392,
,,,0.000326400000,   0.01336,
,,,0.000326440000,   0.01376,
,,,0.000326480000,   0.01432,
,,,0.000326520000,   0.01416,
,,,0.000326560000,   0.01376,
,,,0.000326600000,   0.01384,
,,,0.000326640000,   0.01360,
,,,0.000326680000,   0.01400,
,,,0.000326720000,   0.01352,
,,,0.000326760000,   0.01440,
,,,0.000326800000,   0.01368,
,,,0.000326840000,   0.01336,
,,,0.000326880000,   0.01376,
,,,0.000326920000,   0.01376,
,,,0.000326960000,   0.01344,
,,,0.000327000000,   0.01368,
,,,0.000327040000,   0.01320,
,,,0.000327080000,   0.01296,
,,,0.000327120000,   0.01408,
,,,0.000327160000,   0.01360,
,,,0.000327200000,   0.01384,
,,,0.000327240000,   0.01320,
,,,0.000327280000,   0.01424,
,,,0.000327320000,   0.01344,
,,,0.000327360000,   0.01352,
,,,0.000327400000,   0.01352,
,,,0.000327440000,   0.01360,
,,,0.000327480000,   0.01384,
,,,0.000327520000,   0.01296,
,,,0.000327560000,   0.01368,
,,,0.000327600000,   0.01384,
,,,0.000327640000,   0.01344,
,,,0.000327680000,   0.01352,
,,,0.000327720000,   0.01392,
,,,0.000327760000,   0.01360,
,,,0.000327800000,   0.01360,
,,,0.000327840000,   0.01352,
,,,0.000327880000,   0.01376,
,,,0.000327920000,   0.01344,
,,,0.000327960000,   0.01352,
,,,0.000328000000,   0.01360,
,,,0.000328040000,   0.01304,
,,,0.000328080000,   0.01352,
,,,0.000328120000,   0.01344,
,,,0.000328160000,   0.01360,
,,,0.000328200000,   0.01296,
,,,0.000328240000,   0.01352,
,,,0.000328280000,   0.01384,
,,,0.000328320000,   0.01312,
,,,0.000328360000,   0.01376,
,,,0.000328400000,   0.01312,
,,,0.000328440000,   0.01424,
,,,0.000328480000,   0.01336,
,,,0.000328520000,   0.01328,
,,,0.000328560000,   0.01352,
,,,0.000328600000,   0.01312,
,,,0.000328640000,   0.01344,
,,,0.000328680000,   0.01336,
,,,0.000328720000,   0.01376,
,,,0.000328760000,   0.01400,
,,,0.000328800000,   0.01320,
,,,0.000328840000,   0.01432,
,,,0.000328880000,   0.01296,
,,,0.000328920000,   0.01416,
,,,0.000328960000,   0.01328,
,,,0.000329000000,   0.01360,
,,,0.000329040000,   0.01384,
,,,0.000329080000,   0.01368,
,,,0.000329120000,   0.01344,
,,,0.000329160000,   0.01376,
,,,0.000329200000,   0.01344,
,,,0.000329240000,   0.01352,
,,,0.000329280000,   0.01376,
,,,0.000329320000,   0.01312,
,,,0.000329360000,   0.01344,
,,,0.000329400000,   0.01280,
,,,0.000329440000,   0.01376,
,,,0.000329480000,   0.01344,
,,,0.000329520000,   0.01304,
,,,0.000329560000,   0.01312,
,,,0.000329600000,   0.01328,
,,,0.000329640000,   0.01320,
,,,0.000329680000,   0.01304,
,,,0.000329720000,   0.01320,
,,,0.000329760000,   0.01328,
,,,0.000329800000,   0.01368,
,,,0.000329840000,   0.01336,
,,,0.000329880000,   0.01288,
,,,0.000329920000,   0.01352,
,,,0.000329960000,   0.01272,
,,,0.000330000000,   0.01352,
,,,0.000330040000,   0.01344,
,,,0.000330080000,   0.01400,
,,,0.000330120000,   0.01296,
,,,0.000330160000,   0.01320,
,,,0.000330200000,   0.01352,
,,,0.000330240000,   0.01360,
,,,0.000330280000,   0.01320,
,,,0.000330320000,   0.01368,
,,,0.000330360000,   0.01264,
,,,0.000330400000,   0.01384,
,,,0.000330440000,   0.01360,
,,,0.000330480000,   0.01320,
,,,0.000330520000,   0.01336,
,,,0.000330560000,   0.01368,
,,,0.000330600000,   0.01336,
,,,0.000330640000,   0.01376,
,,,0.000330680000,   0.01360,
,,,0.000330720000,   0.01360,
,,,0.000330760000,   0.01344,
,,,0.000330800000,   0.01336,
,,,0.000330840000,   0.01344,
,,,0.000330880000,   0.01352,
,,,0.000330920000,   0.01344,
,,,0.000330960000,   0.01312,
,,,0.000331000000,   0.01304,
,,,0.000331040000,   0.01320,
,,,0.000331080000,   0.01320,
,,,0.000331120000,   0.01336,
,,,0.000331160000,   0.01360,
,,,0.000331200000,   0.01336,
,,,0.000331240000,   0.01368,
,,,0.000331280000,   0.01384,
,,,0.000331320000,   0.01328,
,,,0.000331360000,   0.01368,
,,,0.000331400000,   0.01312,
,,,0.000331440000,   0.01376,
,,,0.000331480000,   0.01344,
,,,0.000331520000,   0.01376,
,,,0.000331560000,   0.01328,
,,,0.000331600000,   0.01344,
,,,0.000331640000,   0.01280,
,,,0.000331680000,   0.01392,
,,,0.000331720000,   0.01296,
,,,0.000331760000,   0.01424,
,,,0.000331800000,   0.01360,
,,,0.000331840000,   0.01352,
,,,0.000331880000,   0.01384,
,,,0.000331920000,   0.01384,
,,,0.000331960000,   0.01376,
,,,0.000332000000,   0.01384,
,,,0.000332040000,   0.01376,
,,,0.000332080000,   0.01400,
,,,0.000332120000,   0.01376,
,,,0.000332160000,   0.01360,
,,,0.000332200000,   0.01368,
,,,0.000332240000,   0.01336,
,,,0.000332280000,   0.01392,
,,,0.000332320000,   0.01352,
,,,0.000332360000,   0.01320,
,,,0.000332400000,   0.01344,
,,,0.000332440000,   0.01336,
,,,0.000332480000,   0.01280,
,,,0.000332520000,   0.01336,
,,,0.000332560000,   0.01336,
,,,0.000332600000,   0.01304,
,,,0.000332640000,   0.01368,
,,,0.000332680000,   0.01328,
,,,0.000332720000,   0.01352,
,,,0.000332760000,   0.01400,
,,,0.000332800000,   0.01344,
,,,0.000332840000,   0.01352,
,,,0.000332880000,   0.01352,
,,,0.000332920000,   0.01352,
,,,0.000332960000,   0.01352,
,,,0.000333000000,   0.01312,
,,,0.000333040000,   0.01392,
,,,0.000333080000,   0.01288,
,,,0.000333120000,   0.01296,
,,,0.000333160000,   0.01376,
,,,0.000333200000,   0.01320,
,,,0.000333240000,   0.01376,
,,,0.000333280000,   0.01312,
,,,0.000333320000,   0.01384,
,,,0.000333360000,   0.01304,
,,,0.000333400000,   0.01392,
,,,0.000333440000,   0.01352,
,,,0.000333480000,   0.01352,
,,,0.000333520000,   0.01336,
,,,0.000333560000,   0.01336,
,,,0.000333600000,   0.01320,
,,,0.000333640000,   0.01312,
,,,0.000333680000,   0.01344,
,,,0.000333720000,   0.01288,
,,,0.000333760000,   0.01280,
,,,0.000333800000,   0.01424,
,,,0.000333840000,   0.01304,
,,,0.000333880000,   0.01352,
,,,0.000333920000,   0.01344,
,,,0.000333960000,   0.01360,
,,,0.000334000000,   0.01352,
,,,0.000334040000,   0.01400,
,,,0.000334080000,   0.01400,
,,,0.000334120000,   0.01352,
,,,0.000334160000,   0.01328,
,,,0.000334200000,   0.01400,
,,,0.000334240000,   0.01376,
,,,0.000334280000,   0.01360,
,,,0.000334320000,   0.01360,
,,,0.000334360000,   0.01360,
,,,0.000334400000,   0.01392,
,,,0.000334440000,   0.01352,
,,,0.000334480000,   0.01312,
,,,0.000334520000,   0.01376,
,,,0.000334560000,   0.01312,
,,,0.000334600000,   0.01344,
,,,0.000334640000,   0.01384,
,,,0.000334680000,   0.01328,
,,,0.000334720000,   0.01312,
,,,0.000334760000,   0.01336,
,,,0.000334800000,   0.01360,
,,,0.000334840000,   0.01328,
,,,0.000334880000,   0.01344,
,,,0.000334920000,   0.01320,
,,,0.000334960000,   0.01384,
,,,0.000335000000,   0.01384,
,,,0.000335040000,   0.01344,
,,,0.000335080000,   0.01352,
,,,0.000335120000,   0.01376,
,,,0.000335160000,   0.01408,
,,,0.000335200000,   0.01392,
,,,0.000335240000,   0.01368,
,,,0.000335280000,   0.01344,
,,,0.000335320000,   0.01344,
,,,0.000335360000,   0.01384,
,,,0.000335400000,   0.01376,
,,,0.000335440000,   0.01392,
,,,0.000335480000,   0.01408,
,,,0.000335520000,   0.01384,
,,,0.000335560000,   0.01384,
,,,0.000335600000,   0.01320,
,,,0.000335640000,   0.01432,
,,,0.000335680000,   0.01392,
,,,0.000335720000,   0.01344,
,,,0.000335760000,   0.01416,
,,,0.000335800000,   0.01336,
,,,0.000335840000,   0.01384,
,,,0.000335880000,   0.01408,
,,,0.000335920000,   0.01360,
,,,0.000335960000,   0.01352,
,,,0.000336000000,   0.01328,
,,,0.000336040000,   0.01352,
,,,0.000336080000,   0.01368,
,,,0.000336120000,   0.01400,
,,,0.000336160000,   0.01312,
,,,0.000336200000,   0.01384,
,,,0.000336240000,   0.01392,
,,,0.000336280000,   0.01352,
,,,0.000336320000,   0.01352,
,,,0.000336360000,   0.01320,
,,,0.000336400000,   0.01344,
,,,0.000336440000,   0.01232,
,,,0.000336480000,   0.01352,
,,,0.000336520000,   0.01368,
,,,0.000336560000,   0.01344,
,,,0.000336600000,   0.01320,
,,,0.000336640000,   0.01392,
,,,0.000336680000,   0.01344,
,,,0.000336720000,   0.01344,
,,,0.000336760000,   0.01368,
,,,0.000336800000,   0.01312,
,,,0.000336840000,   0.01296,
,,,0.000336880000,   0.01376,
,,,0.000336920000,   0.01376,
,,,0.000336960000,   0.01296,
,,,0.000337000000,   0.01392,
,,,0.000337040000,   0.01312,
,,,0.000337080000,   0.01320,
,,,0.000337120000,   0.01320,
,,,0.000337160000,   0.01360,
,,,0.000337200000,   0.01320,
,,,0.000337240000,   0.01304,
,,,0.000337280000,   0.01384,
,,,0.000337320000,   0.01312,
,,,0.000337360000,   0.01328,
,,,0.000337400000,   0.01304,
,,,0.000337440000,   0.01328,
,,,0.000337480000,   0.01256,
,,,0.000337520000,   0.01368,
,,,0.000337560000,   0.01376,
,,,0.000337600000,   0.01312,
,,,0.000337640000,   0.01336,
,,,0.000337680000,   0.01336,
,,,0.000337720000,   0.01336,
,,,0.000337760000,   0.01320,
,,,0.000337800000,   0.01312,
,,,0.000337840000,   0.01312,
,,,0.000337880000,   0.01248,
,,,0.000337920000,   0.01352,
,,,0.000337960000,   0.01312,
,,,0.000338000000,   0.01392,
,,,0.000338040000,   0.01272,
,,,0.000338080000,   0.01328,
,,,0.000338120000,   0.01336,
,,,0.000338160000,   0.01344,
,,,0.000338200000,   0.01352,
,,,0.000338240000,   0.01320,
,,,0.000338280000,   0.01264,
,,,0.000338320000,   0.01392,
,,,0.000338360000,   0.01312,
,,,0.000338400000,   0.01352,
,,,0.000338440000,   0.01320,
,,,0.000338480000,   0.01336,
,,,0.000338520000,   0.01344,
,,,0.000338560000,   0.01368,
,,,0.000338600000,   0.01384,
,,,0.000338640000,   0.01320,
,,,0.000338680000,   0.01336,
,,,0.000338720000,   0.01408,
,,,0.000338760000,   0.01320,
,,,0.000338800000,   0.01360,
,,,0.000338840000,   0.01320,
,,,0.000338880000,   0.01320,
,,,0.000338920000,   0.01344,
,,,0.000338960000,   0.01408,
,,,0.000339000000,   0.01360,
,,,0.000339040000,   0.01320,
,,,0.000339080000,   0.01384,
,,,0.000339120000,   0.01384,
,,,0.000339160000,   0.01368,
,,,0.000339200000,   0.01400,
,,,0.000339240000,   0.01368,
,,,0.000339280000,   0.01352,
,,,0.000339320000,   0.01392,
,,,0.000339360000,   0.01344,
,,,0.000339400000,   0.01408,
,,,0.000339440000,   0.01368,
,,,0.000339480000,   0.01384,
,,,0.000339520000,   0.01344,
,,,0.000339560000,   0.01376,
,,,0.000339600000,   0.01424,
,,,0.000339640000,   0.01344,
,,,0.000339680000,   0.01392,
,,,0.000339720000,   0.01408,
,,,0.000339760000,   0.01336,
,,,0.000339800000,   0.01384,
,,,0.000339840000,   0.01464,
,,,0.000339880000,   0.01352,
,,,0.000339920000,   0.01464,
,,,0.000339960000,   0.01352,
,,,0.000340000000,   0.01408,
,,,0.000340040000,   0.01384,
,,,0.000340080000,   0.01432,
,,,0.000340120000,   0.01360,
,,,0.000340160000,   0.01432,
,,,0.000340200000,   0.01432,
,,,0.000340240000,   0.01432,
,,,0.000340280000,   0.01360,
,,,0.000340320000,   0.01344,
,,,0.000340360000,   0.01432,
,,,0.000340400000,   0.01304,
,,,0.000340440000,   0.01392,
,,,0.000340480000,   0.01376,
,,,0.000340520000,   0.01344,
,,,0.000340560000,   0.01384,
,,,0.000340600000,   0.01408,
,,,0.000340640000,   0.01368,
,,,0.000340680000,   0.01440,
,,,0.000340720000,   0.01312,
,,,0.000340760000,   0.01456,
,,,0.000340800000,   0.01304,
,,,0.000340840000,   0.01416,
,,,0.000340880000,   0.01352,
,,,0.000340920000,   0.01352,
,,,0.000340960000,   0.01384,
,,,0.000341000000,   0.01376,
,,,0.000341040000,   0.01368,
,,,0.000341080000,   0.01336,
,,,0.000341120000,   0.01384,
,,,0.000341160000,   0.01376,
,,,0.000341200000,   0.01328,
,,,0.000341240000,   0.01360,
,,,0.000341280000,   0.01328,
,,,0.000341320000,   0.01376,
,,,0.000341360000,   0.01376,
,,,0.000341400000,   0.01360,
,,,0.000341440000,   0.01400,
,,,0.000341480000,   0.01368,
,,,0.000341520000,   0.01360,
,,,0.000341560000,   0.01408,
,,,0.000341600000,   0.01400,
,,,0.000341640000,   0.01304,
,,,0.000341680000,   0.01432,
,,,0.000341720000,   0.01344,
,,,0.000341760000,   0.01368,
,,,0.000341800000,   0.01320,
,,,0.000341840000,   0.01376,
,,,0.000341880000,   0.01408,
,,,0.000341920000,   0.01416,
,,,0.000341960000,   0.01376,
,,,0.000342000000,   0.01432,
,,,0.000342040000,   0.01416,
,,,0.000342080000,   0.01400,
,,,0.000342120000,   0.01432,
