semiconductor/data/shockley_haynes/TEK0067.CSV

Record Length,2.500000e+03,,   0.000335000000,  -0.00064,
Sample Interval,2.000000e-08,,   0.000335020000,  -0.00080,
Trigger Point,-1.675000000000e+04,,   0.000335040000,  -0.00072,
,,,   0.000335060000,  -0.00136,
,,,   0.000335080000,  -0.00112,
,,,   0.000335100000,  -0.00120,
Source,CH1,,   0.000335120000,  -0.00048,
Vertical Units,V,,   0.000335140000,  -0.00112,
Vertical Scale,2.000000e-03,,   0.000335160000,  -0.00160,
Vertical Offset,4.000000e-04,,   0.000335180000,  -0.00152,
Horizontal Units,s,,   0.000335200000,  -0.00072,
Horizontal Scale,5.000000e-06,,   0.000335220000,  -0.00072,
Pt Fmt,Y,,   0.000335240000,  -0.00152,
Yzero,0.000000e+00,,   0.000335260000,  -0.00128,
Probe Atten,1.000000e+00,,   0.000335280000,  -0.00112,
Model Number,TDS1002B,,   0.000335300000,  -0.00136,
Serial Number,C052304,,   0.000335320000,  -0.00056,
Firmware Version,FV:v22.01,,   0.000335340000,  -0.00160,
,,,0.000335360000,  -0.00152,
,,,0.000335380000,  -0.00136,
,,,0.000335400000,  -0.00104,
,,,0.000335420000,  -0.00096,
,,,0.000335440000,  -0.00128,
,,,0.000335460000,  -0.00184,
,,,0.000335480000,  -0.00088,
,,,0.000335500000,  -0.00112,
,,,0.000335520000,  -0.00112,
,,,0.000335540000,  -0.00120,
,,,0.000335560000,  -0.00088,
,,,0.000335580000,  -0.00120,
,,,0.000335600000,  -0.00128,
,,,0.000335620000,  -0.00112,
,,,0.000335640000,  -0.00080,
,,,0.000335660000,  -0.00064,
,,,0.000335680000,  -0.00024,
,,,0.000335700000,  -0.00064,
,,,0.000335720000,  -0.00104,
,,,0.000335740000,  -0.00152,
,,,0.000335760000,  -0.00120,
,,,0.000335780000,  -0.00104,
,,,0.000335800000,  -0.00096,
,,,0.000335820000,  -0.00072,
,,,0.000335840000,  -0.00120,
,,,0.000335860000,  -0.00104,
,,,0.000335880000,  -0.00080,
,,,0.000335900000,  -0.00072,
,,,0.000335920000,  -0.00176,
,,,0.000335940000,  -0.00112,
,,,0.000335960000,  -0.00048,
,,,0.000335980000,  -0.00032,
,,,0.000336000000,  -0.00128,
,,,0.000336020000,  -0.00096,
,,,0.000336040000,  -0.00096,
,,,0.000336060000,  -0.00016,
,,,0.000336080000,  -0.00088,
,,,0.000336100000,  -0.00144,
,,,0.000336120000,  -0.00160,
,,,0.000336140000,  -0.00064,
,,,0.000336160000,  -0.00088,
,,,0.000336180000,  -0.00120,
,,,0.000336200000,  -0.00192,
,,,0.000336220000,  -0.00112,
,,,0.000336240000,  -0.00040,
,,,0.000336260000,  -0.00016,
,,,0.000336280000,  -0.00072,
,,,0.000336300000,  -0.00112,
,,,0.000336320000,  -0.00104,
,,,0.000336340000,  -0.00040,
,,,0.000336360000,   0.00032,
,,,0.000336380000,  -0.00048,
,,,0.000336400000,  -0.00056,
,,,0.000336420000,  -0.00064,
,,,0.000336440000,  -0.00080,
,,,0.000336460000,  -0.00080,
,,,0.000336480000,  -0.00024,
,,,0.000336500000,  -0.00064,
,,,0.000336520000,  -0.00080,
,,,0.000336540000,  -0.00120,
,,,0.000336560000,  -0.00112,
,,,0.000336580000,  -0.00136,
,,,0.000336600000,  -0.00152,
,,,0.000336620000,  -0.00120,
,,,0.000336640000,  -0.00096,
,,,0.000336660000,  -0.00096,
,,,0.000336680000,  -0.00144,
,,,0.000336700000,  -0.00080,
,,,0.000336720000,  -0.00032,
,,,0.000336740000,  -0.00056,
,,,0.000336760000,  -0.00152,
,,,0.000336780000,  -0.00056,
,,,0.000336800000,  -0.00040,
,,,0.000336820000,  -0.00048,
,,,0.000336840000,  -0.00128,
,,,0.000336860000,  -0.00136,
,,,0.000336880000,  -0.00112,
,,,0.000336900000,  -0.00056,
,,,0.000336920000,  -0.00072,
,,,0.000336940000,  -0.00104,
,,,0.000336960000,  -0.00080,
,,,0.000336980000,  -0.00064,
,,,0.000337000000,  -0.00040,
,,,0.000337020000,  -0.00072,
,,,0.000337040000,  -0.00112,
,,,0.000337060000,  -0.00064,
,,,0.000337080000,  -0.00040,
,,,0.000337100000,  -0.00048,
,,,0.000337120000,  -0.00112,
,,,0.000337140000,  -0.00064,
,,,0.000337160000,  -0.00072,
,,,0.000337180000,  -0.00072,
,,,0.000337200000,  -0.00088,
,,,0.000337220000,  -0.00064,
,,,0.000337240000,  -0.00088,
,,,0.000337260000,  -0.00056,
,,,0.000337280000,  -0.00088,
,,,0.000337300000,  -0.00080,
,,,0.000337320000,   0.00000,
,,,0.000337340000,  -0.00056,
,,,0.000337360000,  -0.00128,
,,,0.000337380000,  -0.00064,
,,,0.000337400000,   0.00016,
,,,0.000337420000,   0.00000,
,,,0.000337440000,  -0.00120,
,,,0.000337460000,  -0.00112,
,,,0.000337480000,  -0.00112,
,,,0.000337500000,  -0.00064,
,,,0.000337520000,  -0.00024,
,,,0.000337540000,  -0.00064,
,,,0.000337560000,  -0.00128,
,,,0.000337580000,  -0.00040,
,,,0.000337600000,  -0.00040,
,,,0.000337620000,  -0.00048,
,,,0.000337640000,  -0.00104,
,,,0.000337660000,  -0.00096,
,,,0.000337680000,  -0.00120,
,,,0.000337700000,  -0.00048,
,,,0.000337720000,  -0.00048,
,,,0.000337740000,  -0.00080,
,,,0.000337760000,  -0.00104,
,,,0.000337780000,  -0.00096,
,,,0.000337800000,  -0.00056,
,,,0.000337820000,  -0.00072,
,,,0.000337840000,  -0.00112,
,,,0.000337860000,  -0.00048,
,,,0.000337880000,  -0.00048,
,,,0.000337900000,  -0.00040,
,,,0.000337920000,  -0.00088,
,,,0.000337940000,  -0.00104,
,,,0.000337960000,  -0.00096,
,,,0.000337980000,  -0.00072,
,,,0.000338000000,  -0.00048,
,,,0.000338020000,  -0.00088,
,,,0.000338040000,  -0.00160,
,,,0.000338060000,  -0.00064,
,,,0.000338080000,  -0.00032,
,,,0.000338100000,  -0.00072,
,,,0.000338120000,  -0.00096,
,,,0.000338140000,  -0.00072,
,,,0.000338160000,  -0.00024,
,,,0.000338180000,  -0.00072,
,,,0.000338200000,  -0.00104,
,,,0.000338220000,  -0.00080,
,,,0.000338240000,  -0.00016,
,,,0.000338260000,  -0.00088,
,,,0.000338280000,  -0.00080,
,,,0.000338300000,  -0.00080,
,,,0.000338320000,  -0.00016,
,,,0.000338340000,  -0.00024,
,,,0.000338360000,  -0.00104,
,,,0.000338380000,  -0.00096,
,,,0.000338400000,  -0.00064,
,,,0.000338420000,  -0.00072,
,,,0.000338440000,  -0.00048,
,,,0.000338460000,  -0.00096,
,,,0.000338480000,  -0.00104,
,,,0.000338500000,  -0.00104,
,,,0.000338520000,  -0.00080,
,,,0.000338540000,  -0.00064,
,,,0.000338560000,  -0.00088,
,,,0.000338580000,  -0.00080,
,,,0.000338600000,  -0.00056,
,,,0.000338620000,  -0.00024,
,,,0.000338640000,  -0.00032,
,,,0.000338660000,  -0.00096,
,,,0.000338680000,  -0.00104,
,,,0.000338700000,  -0.00016,
,,,0.000338720000,  -0.00016,
,,,0.000338740000,  -0.00072,
,,,0.000338760000,  -0.00072,
,,,0.000338780000,  -0.00072,
,,,0.000338800000,  -0.00056,
,,,0.000338820000,  -0.00064,
,,,0.000338840000,  -0.00088,
,,,0.000338860000,  -0.00072,
,,,0.000338880000,  -0.00048,
,,,0.000338900000,  -0.00120,
,,,0.000338920000,  -0.00112,
,,,0.000338940000,  -0.00064,
,,,0.000338960000,  -0.00040,
,,,0.000338980000,  -0.00072,
,,,0.000339000000,  -0.00152,
,,,0.000339020000,  -0.00064,
,,,0.000339040000,  -0.00064,
,,,0.000339060000,  -0.00016,
,,,0.000339080000,  -0.00040,
,,,0.000339100000,  -0.00080,
,,,0.000339120000,  -0.00080,
,,,0.000339140000,  -0.00064,
,,,0.000339160000,  -0.00096,
,,,0.000339180000,  -0.00080,
,,,0.000339200000,  -0.00040,
,,,0.000339220000,  -0.00032,
,,,0.000339240000,  -0.00016,
,,,0.000339260000,  -0.00080,
,,,0.000339280000,  -0.00072,
,,,0.000339300000,  -0.00008,
,,,0.000339320000,  -0.00008,
,,,0.000339340000,  -0.00072,
,,,0.000339360000,  -0.00064,
,,,0.000339380000,  -0.00016,
,,,0.000339400000,  -0.00072,
,,,0.000339420000,  -0.00088,
,,,0.000339440000,  -0.00072,
,,,0.000339460000,  -0.00064,
,,,0.000339480000,  -0.00048,
,,,0.000339500000,  -0.00064,
,,,0.000339520000,  -0.00056,
,,,0.000339540000,  -0.00048,
,,,0.000339560000,  -0.00104,
,,,0.000339580000,  -0.00128,
,,,0.000339600000,  -0.00072,
,,,0.000339620000,  -0.00016,
,,,0.000339640000,  -0.00072,
,,,0.000339660000,  -0.00088,
,,,0.000339680000,  -0.00104,
,,,0.000339700000,  -0.00064,
,,,0.000339720000,  -0.00032,
,,,0.000339740000,  -0.00128,
,,,0.000339760000,  -0.00080,
,,,0.000339780000,  -0.00096,
,,,0.000339800000,  -0.00080,
,,,0.000339820000,  -0.00056,
,,,0.000339840000,  -0.00048,
,,,0.000339860000,  -0.00088,
,,,0.000339880000,  -0.00112,
,,,0.000339900000,  -0.00112,
,,,0.000339920000,  -0.00144,
,,,0.000339940000,  -0.00032,
,,,0.000339960000,  -0.00048,
,,,0.000339980000,  -0.00064,
,,,0.000340000000,  -0.00088,
,,,0.000340020000,  -0.00032,
,,,0.000340040000,  -0.00056,
,,,0.000340060000,  -0.00088,
,,,0.000340080000,  -0.00120,
,,,0.000340100000,  -0.00048,
,,,0.000340120000,  -0.00064,
,,,0.000340140000,  -0.00096,
,,,0.000340160000,  -0.00048,
,,,0.000340180000,  -0.00112,
,,,0.000340200000,  -0.00080,
,,,0.000340220000,  -0.00008,
,,,0.000340240000,  -0.00016,
,,,0.000340260000,  -0.00072,
,,,0.000340280000,  -0.00048,
,,,0.000340300000,  -0.00016,
,,,0.000340320000,  -0.00048,
,,,0.000340340000,  -0.00104,
,,,0.000340360000,  -0.00096,
,,,0.000340380000,  -0.00064,
,,,0.000340400000,  -0.00040,
,,,0.000340420000,  -0.00016,
,,,0.000340440000,  -0.00080,
,,,0.000340460000,  -0.00032,
,,,0.000340480000,  -0.00072,
,,,0.000340500000,  -0.00024,
,,,0.000340520000,  -0.00048,
,,,0.000340540000,  -0.00056,
,,,0.000340560000,   0.00000,
,,,0.000340580000,  -0.00056,
,,,0.000340600000,  -0.00024,
,,,0.000340620000,  -0.00008,
,,,0.000340640000,  -0.00064,
,,,0.000340660000,  -0.00008,
,,,0.000340680000,  -0.00040,
,,,0.000340700000,  -0.00104,
,,,0.000340720000,  -0.00104,
,,,0.000340740000,  -0.00008,
,,,0.000340760000,  -0.00080,
,,,0.000340780000,  -0.00056,
,,,0.000340800000,  -0.00088,
,,,0.000340820000,  -0.00064,
,,,0.000340840000,  -0.00080,
,,,0.000340860000,  -0.00088,
,,,0.000340880000,  -0.00104,
,,,0.000340900000,  -0.00048,
,,,0.000340920000,  -0.00104,
,,,0.000340940000,  -0.00136,
,,,0.000340960000,  -0.00152,
,,,0.000340980000,  -0.00120,
,,,0.000341000000,  -0.00048,
,,,0.000341020000,  -0.00056,
,,,0.000341040000,  -0.00120,
,,,0.000341060000,  -0.00128,
,,,0.000341080000,  -0.00072,
,,,0.000341100000,  -0.00080,
,,,0.000341120000,  -0.00120,
,,,0.000341140000,  -0.00128,
,,,0.000341160000,  -0.00080,
,,,0.000341180000,  -0.00096,
,,,0.000341200000,  -0.00096,
,,,0.000341220000,  -0.00064,
,,,0.000341240000,  -0.00056,
,,,0.000341260000,  -0.00088,
,,,0.000341280000,  -0.00104,
,,,0.000341300000,  -0.00064,
,,,0.000341320000,  -0.00096,
,,,0.000341340000,  -0.00128,
,,,0.000341360000,  -0.00096,
,,,0.000341380000,  -0.00048,
,,,0.000341400000,  -0.00088,
,,,0.000341420000,  -0.00080,
,,,0.000341440000,  -0.00080,
,,,0.000341460000,  -0.00080,
,,,0.000341480000,  -0.00120,
,,,0.000341500000,  -0.00088,
,,,0.000341520000,  -0.00160,
,,,0.000341540000,  -0.00136,
,,,0.000341560000,  -0.00080,
,,,0.000341580000,  -0.00048,
,,,0.000341600000,  -0.00136,
,,,0.000341620000,  -0.00144,
,,,0.000341640000,  -0.00128,
,,,0.000341660000,  -0.00104,
,,,0.000341680000,  -0.00096,
,,,0.000341700000,  -0.00144,
,,,0.000341720000,  -0.00064,
,,,0.000341740000,  -0.00048,
,,,0.000341760000,  -0.00112,
,,,0.000341780000,  -0.00104,
,,,0.000341800000,  -0.00136,
,,,0.000341820000,  -0.00096,
,,,0.000341840000,  -0.00072,
,,,0.000341860000,  -0.00112,
,,,0.000341880000,  -0.00128,
,,,0.000341900000,  -0.00136,
,,,0.000341920000,  -0.00120,
,,,0.000341940000,  -0.00096,
,,,0.000341960000,  -0.00088,
,,,0.000341980000,  -0.00096,
,,,0.000342000000,  -0.00104,
,,,0.000342020000,  -0.00104,
,,,0.000342040000,  -0.00024,
,,,0.000342060000,  -0.00096,
,,,0.000342080000,  -0.00104,
,,,0.000342100000,  -0.00136,
,,,0.000342120000,  -0.00056,
,,,0.000342140000,  -0.00096,
,,,0.000342160000,  -0.00104,
,,,0.000342180000,  -0.00112,
,,,0.000342200000,  -0.00064,
,,,0.000342220000,  -0.00072,
,,,0.000342240000,  -0.00096,
,,,0.000342260000,  -0.00072,
,,,0.000342280000,  -0.00088,
,,,0.000342300000,  -0.00048,
,,,0.000342320000,  -0.00128,
,,,0.000342340000,  -0.00128,
,,,0.000342360000,  -0.00072,
,,,0.000342380000,  -0.00056,
,,,0.000342400000,  -0.00160,
,,,0.000342420000,  -0.00152,
,,,0.000342440000,  -0.00072,
,,,0.000342460000,  -0.00032,
,,,0.000342480000,  -0.00088,
,,,0.000342500000,  -0.00112,
,,,0.000342520000,  -0.00120,
,,,0.000342540000,  -0.00024,
,,,0.000342560000,  -0.00056,
,,,0.000342580000,  -0.00168,
,,,0.000342600000,  -0.00136,
,,,0.000342620000,  -0.00096,
,,,0.000342640000,  -0.00008,
,,,0.000342660000,  -0.00008,
,,,0.000342680000,  -0.00120,
,,,0.000342700000,  -0.00096,
,,,0.000342720000,  -0.00048,
,,,0.000342740000,  -0.00024,
,,,0.000342760000,  -0.00112,
,,,0.000342780000,  -0.00120,
,,,0.000342800000,  -0.00048,
,,,0.000342820000,  -0.00040,
,,,0.000342840000,  -0.00048,
,,,0.000342860000,  -0.00104,
,,,0.000342880000,  -0.00032,
,,,0.000342900000,  -0.00040,
,,,0.000342920000,  -0.00128,
,,,0.000342940000,  -0.00120,
,,,0.000342960000,  -0.00040,
,,,0.000342980000,  -0.00016,
,,,0.000343000000,  -0.00088,
,,,0.000343020000,  -0.00088,
,,,0.000343040000,  -0.00112,
,,,0.000343060000,  -0.00008,
,,,0.000343080000,  -0.00064,
,,,0.000343100000,  -0.00072,
,,,0.000343120000,  -0.00104,
,,,0.000343140000,  -0.00152,
,,,0.000343160000,  -0.00088,
,,,0.000343180000,  -0.00056,
,,,0.000343200000,  -0.00064,
,,,0.000343220000,  -0.00128,
,,,0.000343240000,  -0.00136,
,,,0.000343260000,  -0.00096,
,,,0.000343280000,  -0.00088,
,,,0.000343300000,  -0.00112,
,,,0.000343320000,  -0.00064,
,,,0.000343340000,  -0.00080,
,,,0.000343360000,  -0.00112,
,,,0.000343380000,  -0.00128,
,,,0.000343400000,  -0.00088,
,,,0.000343420000,  -0.00064,
,,,0.000343440000,  -0.00144,
,,,0.000343460000,  -0.00096,
,,,0.000343480000,  -0.00056,
,,,0.000343500000,  -0.00048,
,,,0.000343520000,  -0.00072,
,,,0.000343540000,  -0.00104,
,,,0.000343560000,  -0.00104,
,,,0.000343580000,  -0.00080,
,,,0.000343600000,  -0.00072,
,,,0.000343620000,  -0.00120,
,,,0.000343640000,  -0.00120,
,,,0.000343660000,  -0.00136,
,,,0.000343680000,  -0.00096,
,,,0.000343700000,  -0.00120,
,,,0.000343720000,  -0.00136,
,,,0.000343740000,  -0.00136,
,,,0.000343760000,  -0.00088,
,,,0.000343780000,  -0.00096,
,,,0.000343800000,  -0.00152,
,,,0.000343820000,  -0.00176,
,,,0.000343840000,  -0.00112,
,,,0.000343860000,  -0.00096,
,,,0.000343880000,  -0.00168,
,,,0.000343900000,  -0.00192,
,,,0.000343920000,  -0.00144,
,,,0.000343940000,  -0.00072,
,,,0.000343960000,  -0.00080,
,,,0.000343980000,  -0.00168,
,,,0.000344000000,  -0.00168,
,,,0.000344020000,  -0.00152,
,,,0.000344040000,  -0.00184,
,,,0.000344060000,  -0.00160,
,,,0.000344080000,  -0.00128,
,,,0.000344100000,  -0.00128,
,,,0.000344120000,  -0.00184,
,,,0.000344140000,  -0.00176,
,,,0.000344160000,  -0.00128,
,,,0.000344180000,  -0.00104,
,,,0.000344200000,  -0.00080,
,,,0.000344220000,  -0.00184,
,,,0.000344240000,  -0.00232,
,,,0.000344260000,  -0.00096,
,,,0.000344280000,  -0.00056,
,,,0.000344300000,  -0.00112,
,,,0.000344320000,  -0.00144,
,,,0.000344340000,  -0.00136,
,,,0.000344360000,  -0.00056,
,,,0.000344380000,  -0.00048,
,,,0.000344400000,  -0.00152,
,,,0.000344420000,  -0.00160,
,,,0.000344440000,  -0.00112,
,,,0.000344460000,  -0.00120,
,,,0.000344480000,  -0.00128,
,,,0.000344500000,  -0.00104,
,,,0.000344520000,  -0.00120,
,,,0.000344540000,  -0.00072,
,,,0.000344560000,  -0.00024,
,,,0.000344580000,  -0.00064,
,,,0.000344600000,  -0.00056,
,,,0.000344620000,  -0.00120,
,,,0.000344640000,  -0.00104,
,,,0.000344660000,  -0.00088,
,,,0.000344680000,  -0.00104,
,,,0.000344700000,  -0.00072,
,,,0.000344720000,  -0.00072,
,,,0.000344740000,  -0.00096,
,,,0.000344760000,  -0.00104,
,,,0.000344780000,  -0.00104,
,,,0.000344800000,  -0.00048,
,,,0.000344820000,  -0.00048,
,,,0.000344840000,  -0.00088,
,,,0.000344860000,  -0.00144,
,,,0.000344880000,  -0.00136,
,,,0.000344900000,  -0.00120,
,,,0.000344920000,  -0.00136,
,,,0.000344940000,  -0.00168,
,,,0.000344960000,  -0.00056,
,,,0.000344980000,  -0.00048,
,,,0.000345000000,  -0.00136,
,,,0.000345020000,  -0.00144,
,,,0.000345040000,  -0.00040,
,,,0.000345060000,  -0.00056,
,,,0.000345080000,  -0.00112,
,,,0.000345100000,  -0.00104,
,,,0.000345120000,  -0.00136,
,,,0.000345140000,  -0.00040,
,,,0.000345160000,  -0.00064,
,,,0.000345180000,  -0.00064,
,,,0.000345200000,  -0.00112,
,,,0.000345220000,  -0.00080,
,,,0.000345240000,  -0.00040,
,,,0.000345260000,  -0.00040,
,,,0.000345280000,  -0.00104,
,,,0.000345300000,  -0.00064,
,,,0.000345320000,  -0.00096,
,,,0.000345340000,  -0.00064,
,,,0.000345360000,  -0.00136,
,,,0.000345380000,  -0.00088,
,,,0.000345400000,  -0.00096,
,,,0.000345420000,  -0.00072,
,,,0.000345440000,  -0.00032,
,,,0.000345460000,  -0.00080,
,,,0.000345480000,  -0.00088,
,,,0.000345500000,  -0.00080,
,,,0.000345520000,  -0.00104,
,,,0.000345540000,  -0.00040,
,,,0.000345560000,  -0.00072,
,,,0.000345580000,  -0.00104,
,,,0.000345600000,  -0.00088,
,,,0.000345620000,  -0.00016,
,,,0.000345640000,  -0.00008,
,,,0.000345660000,  -0.00064,
,,,0.000345680000,  -0.00096,
,,,0.000345700000,  -0.00096,
,,,0.000345720000,  -0.00056,
,,,0.000345740000,  -0.00056,
,,,0.000345760000,  -0.00040,
,,,0.000345780000,  -0.00008,
,,,0.000345800000,  -0.00072,
,,,0.000345820000,  -0.00088,
,,,0.000345840000,  -0.00072,
,,,0.000345860000,  -0.00040,
,,,0.000345880000,  -0.00024,
,,,0.000345900000,  -0.00072,
,,,0.000345920000,  -0.00104,
,,,0.000345940000,  -0.00128,
,,,0.000345960000,  -0.00072,
,,,0.000345980000,  -0.00032,
,,,0.000346000000,  -0.00072,
,,,0.000346020000,  -0.00128,
,,,0.000346040000,  -0.00168,
,,,0.000346060000,  -0.00088,
,,,0.000346080000,  -0.00072,
,,,0.000346100000,  -0.00096,
,,,0.000346120000,  -0.00176,
,,,0.000346140000,  -0.00136,
,,,0.000346160000,  -0.00104,
,,,0.000346180000,  -0.00096,
,,,0.000346200000,  -0.00128,
,,,0.000346220000,  -0.00104,
,,,0.000346240000,  -0.00120,
,,,0.000346260000,  -0.00104,
,,,0.000346280000,  -0.00080,
,,,0.000346300000,  -0.00096,
,,,0.000346320000,  -0.00112,
,,,0.000346340000,  -0.00064,
,,,0.000346360000,  -0.00104,
,,,0.000346380000,  -0.00064,
,,,0.000346400000,  -0.00064,
,,,0.000346420000,  -0.00136,
,,,0.000346440000,  -0.00136,
,,,0.000346460000,  -0.00072,
,,,0.000346480000,  -0.00112,
,,,0.000346500000,  -0.00104,
,,,0.000346520000,  -0.00128,
,,,0.000346540000,  -0.00104,
,,,0.000346560000,  -0.00096,
,,,0.000346580000,  -0.00080,
,,,0.000346600000,  -0.00104,
,,,0.000346620000,  -0.00104,
,,,0.000346640000,  -0.00096,
,,,0.000346660000,  -0.00096,
,,,0.000346680000,  -0.00112,
,,,0.000346700000,  -0.00160,
,,,0.000346720000,  -0.00176,
,,,0.000346740000,  -0.00120,
,,,0.000346760000,  -0.00096,
,,,0.000346780000,  -0.00112,
,,,0.000346800000,  -0.00136,
,,,0.000346820000,  -0.00088,
,,,0.000346840000,  -0.00096,
,,,0.000346860000,  -0.00136,
,,,0.000346880000,  -0.00096,
,,,0.000346900000,  -0.00120,
,,,0.000346920000,  -0.00144,
,,,0.000346940000,  -0.00160,
,,,0.000346960000,  -0.00064,
,,,0.000346980000,  -0.00064,
,,,0.000347000000,  -0.00144,
,,,0.000347020000,  -0.00112,
,,,0.000347040000,  -0.00064,
,,,0.000347060000,  -0.00136,
,,,0.000347080000,  -0.00104,
,,,0.000347100000,  -0.00072,
,,,0.000347120000,  -0.00088,
,,,0.000347140000,  -0.00160,
,,,0.000347160000,  -0.00072,
,,,0.000347180000,  -0.00008,
,,,0.000347200000,  -0.00072,
,,,0.000347220000,  -0.00112,
,,,0.000347240000,  -0.00112,
,,,0.000347260000,  -0.00048,
,,,0.000347280000,  -0.00032,
,,,0.000347300000,  -0.00064,
,,,0.000347320000,  -0.00104,
,,,0.000347340000,  -0.00120,
,,,0.000347360000,  -0.00048,
,,,0.000347380000,  -0.00096,
,,,0.000347400000,  -0.00096,
,,,0.000347420000,  -0.00080,
,,,0.000347440000,  -0.00064,
,,,0.000347460000,  -0.00112,
,,,0.000347480000,  -0.00120,
,,,0.000347500000,  -0.00016,
,,,0.000347520000,  -0.00032,
,,,0.000347540000,  -0.00096,
,,,0.000347560000,  -0.00144,
,,,0.000347580000,  -0.00096,
,,,0.000347600000,  -0.00016,
,,,0.000347620000,  -0.00080,
,,,0.000347640000,  -0.00136,
,,,0.000347660000,  -0.00104,
,,,0.000347680000,  -0.00072,
,,,0.000347700000,  -0.00072,
,,,0.000347720000,  -0.00088,
,,,0.000347740000,  -0.00080,
,,,0.000347760000,  -0.00032,
,,,0.000347780000,  -0.00064,
,,,0.000347800000,  -0.00088,
,,,0.000347820000,  -0.00112,
,,,0.000347840000,  -0.00096,
,,,0.000347860000,  -0.00112,
,,,0.000347880000,  -0.00072,
,,,0.000347900000,  -0.00016,
,,,0.000347920000,  -0.00048,
,,,0.000347940000,  -0.00096,
,,,0.000347960000,  -0.00096,
,,,0.000347980000,  -0.00072,
,,,0.000348000000,  -0.00040,
,,,0.000348020000,  -0.00072,
,,,0.000348040000,  -0.00128,
,,,0.000348060000,  -0.00088,
