semiconductor/data/TEK0063.CSV

Record Length,2.500000e+03,,   0.000352700000,  -1.24200,
Sample Interval,1.000000e-08,,   0.000352710000,  -1.24200,
Trigger Point,-3.527000000000e+04,,   0.000352720000,  -1.24240,
,,,   0.000352730000,  -1.24240,
,,,   0.000352740000,  -1.24240,
,,,   0.000352750000,  -1.24280,
Source,CH1,,   0.000352760000,  -1.24240,
Vertical Units,V,,   0.000352770000,  -1.24240,
Vertical Scale,1.000000e-02,,   0.000352780000,  -1.24200,
Vertical Offset,1.253600e+00,,   0.000352790000,  -1.24240,
Horizontal Units,s,,   0.000352800000,  -1.24200,
Horizontal Scale,2.500000e-06,,   0.000352810000,  -1.24240,
Pt Fmt,Y,,   0.000352820000,  -1.24240,
Yzero,0.000000e+00,,   0.000352830000,  -1.24280,
Probe Atten,1.000000e+00,,   0.000352840000,  -1.24200,
Model Number,TDS1002B,,   0.000352850000,  -1.24160,
Serial Number,C052304,,   0.000352860000,  -1.24200,
Firmware Version,FV:v22.01,,   0.000352870000,  -1.24280,
,,,0.000352880000,  -1.24280,
,,,0.000352890000,  -1.24280,
,,,0.000352900000,  -1.24280,
,,,0.000352910000,  -1.24240,
,,,0.000352920000,  -1.24240,
,,,0.000352930000,  -1.24200,
,,,0.000352940000,  -1.24200,
,,,0.000352950000,  -1.24240,
,,,0.000352960000,  -1.24160,
,,,0.000352970000,  -1.24200,
,,,0.000352980000,  -1.24200,
,,,0.000352990000,  -1.24200,
,,,0.000353000000,  -1.24200,
,,,0.000353010000,  -1.24240,
,,,0.000353020000,  -1.24240,
,,,0.000353030000,  -1.24240,
,,,0.000353040000,  -1.24120,
,,,0.000353050000,  -1.24200,
,,,0.000353060000,  -1.24200,
,,,0.000353070000,  -1.24200,
,,,0.000353080000,  -1.24240,
,,,0.000353090000,  -1.24200,
,,,0.000353100000,  -1.24280,
,,,0.000353110000,  -1.24280,
,,,0.000353120000,  -1.24200,
,,,0.000353130000,  -1.24280,
,,,0.000353140000,  -1.24240,
,,,0.000353150000,  -1.24200,
,,,0.000353160000,  -1.24280,
,,,0.000353170000,  -1.24280,
,,,0.000353180000,  -1.24280,
,,,0.000353190000,  -1.24320,
,,,0.000353200000,  -1.24320,
,,,0.000353210000,  -1.24320,
,,,0.000353220000,  -1.24280,
,,,0.000353230000,  -1.24240,
,,,0.000353240000,  -1.24360,
,,,0.000353250000,  -1.24320,
,,,0.000353260000,  -1.24360,
,,,0.000353270000,  -1.24280,
,,,0.000353280000,  -1.24360,
,,,0.000353290000,  -1.24280,
,,,0.000353300000,  -1.24320,
,,,0.000353310000,  -1.24280,
,,,0.000353320000,  -1.24280,
,,,0.000353330000,  -1.24280,
,,,0.000353340000,  -1.24200,
,,,0.000353350000,  -1.24240,
,,,0.000353360000,  -1.24240,
,,,0.000353370000,  -1.24240,
,,,0.000353380000,  -1.24200,
,,,0.000353390000,  -1.24360,
,,,0.000353400000,  -1.24320,
,,,0.000353410000,  -1.24400,
,,,0.000353420000,  -1.24280,
,,,0.000353430000,  -1.24240,
,,,0.000353440000,  -1.24280,
,,,0.000353450000,  -1.24360,
,,,0.000353460000,  -1.24360,
,,,0.000353470000,  -1.24400,
,,,0.000353480000,  -1.24320,
,,,0.000353490000,  -1.24320,
,,,0.000353500000,  -1.24280,
,,,0.000353510000,  -1.24240,
,,,0.000353520000,  -1.24240,
,,,0.000353530000,  -1.24280,
,,,0.000353540000,  -1.24360,
,,,0.000353550000,  -1.24360,
,,,0.000353560000,  -1.24280,
,,,0.000353570000,  -1.24360,
,,,0.000353580000,  -1.24240,
,,,0.000353590000,  -1.24320,
,,,0.000353600000,  -1.24280,
,,,0.000353610000,  -1.24320,
,,,0.000353620000,  -1.24320,
,,,0.000353630000,  -1.24320,
,,,0.000353640000,  -1.24320,
,,,0.000353650000,  -1.24360,
,,,0.000353660000,  -1.24240,
,,,0.000353670000,  -1.24320,
,,,0.000353680000,  -1.24400,
,,,0.000353690000,  -1.24280,
,,,0.000353700000,  -1.24320,
,,,0.000353710000,  -1.24360,
,,,0.000353720000,  -1.24320,
,,,0.000353730000,  -1.24240,
,,,0.000353740000,  -1.24360,
,,,0.000353750000,  -1.24400,
,,,0.000353760000,  -1.24400,
,,,0.000353770000,  -1.24280,
,,,0.000353780000,  -1.24320,
,,,0.000353790000,  -1.24200,
,,,0.000353800000,  -1.24280,
,,,0.000353810000,  -1.24240,
,,,0.000353820000,  -1.24360,
,,,0.000353830000,  -1.24320,
,,,0.000353840000,  -1.24320,
,,,0.000353850000,  -1.24320,
,,,0.000353860000,  -1.24320,
,,,0.000353870000,  -1.24320,
,,,0.000353880000,  -1.24200,
,,,0.000353890000,  -1.24240,
,,,0.000353900000,  -1.24280,
,,,0.000353910000,  -1.24280,
,,,0.000353920000,  -1.24400,
,,,0.000353930000,  -1.24320,
,,,0.000353940000,  -1.24280,
,,,0.000353950000,  -1.24320,
,,,0.000353960000,  -1.24240,
,,,0.000353970000,  -1.24280,
,,,0.000353980000,  -1.24360,
,,,0.000353990000,  -1.24280,
,,,0.000354000000,  -1.24320,
,,,0.000354010000,  -1.24240,
,,,0.000354020000,  -1.24320,
,,,0.000354030000,  -1.24320,
,,,0.000354040000,  -1.24240,
,,,0.000354050000,  -1.24280,
,,,0.000354060000,  -1.24200,
,,,0.000354070000,  -1.24200,
,,,0.000354080000,  -1.24200,
,,,0.000354090000,  -1.24200,
,,,0.000354100000,  -1.24320,
,,,0.000354110000,  -1.24240,
,,,0.000354120000,  -1.24280,
,,,0.000354130000,  -1.24200,
,,,0.000354140000,  -1.24240,
,,,0.000354150000,  -1.24240,
,,,0.000354160000,  -1.24320,
,,,0.000354170000,  -1.24320,
,,,0.000354180000,  -1.24360,
,,,0.000354190000,  -1.24200,
,,,0.000354200000,  -1.24200,
,,,0.000354210000,  -1.24280,
,,,0.000354220000,  -1.24280,
,,,0.000354230000,  -1.24360,
,,,0.000354240000,  -1.24360,
,,,0.000354250000,  -1.24320,
,,,0.000354260000,  -1.24320,
,,,0.000354270000,  -1.24360,
,,,0.000354280000,  -1.24320,
,,,0.000354290000,  -1.24320,
,,,0.000354300000,  -1.24320,
,,,0.000354310000,  -1.24240,
,,,0.000354320000,  -1.24240,
,,,0.000354330000,  -1.24320,
,,,0.000354340000,  -1.24360,
,,,0.000354350000,  -1.24200,
,,,0.000354360000,  -1.24240,
,,,0.000354370000,  -1.24240,
,,,0.000354380000,  -1.24240,
,,,0.000354390000,  -1.24280,
,,,0.000354400000,  -1.24320,
,,,0.000354410000,  -1.24280,
,,,0.000354420000,  -1.24240,
,,,0.000354430000,  -1.24280,
,,,0.000354440000,  -1.24280,
,,,0.000354450000,  -1.24360,
,,,0.000354460000,  -1.24400,
,,,0.000354470000,  -1.24280,
,,,0.000354480000,  -1.24320,
,,,0.000354490000,  -1.24200,
,,,0.000354500000,  -1.24200,
,,,0.000354510000,  -1.24240,
,,,0.000354520000,  -1.24320,
,,,0.000354530000,  -1.24320,
,,,0.000354540000,  -1.24240,
,,,0.000354550000,  -1.24320,
,,,0.000354560000,  -1.24360,
,,,0.000354570000,  -1.24280,
,,,0.000354580000,  -1.24360,
,,,0.000354590000,  -1.24240,
,,,0.000354600000,  -1.24160,
,,,0.000354610000,  -1.24320,
,,,0.000354620000,  -1.24240,
,,,0.000354630000,  -1.24360,
,,,0.000354640000,  -1.24360,
,,,0.000354650000,  -1.24280,
,,,0.000354660000,  -1.24280,
,,,0.000354670000,  -1.24280,
,,,0.000354680000,  -1.24320,
,,,0.000354690000,  -1.24240,
,,,0.000354700000,  -1.24240,
,,,0.000354710000,  -1.24320,
,,,0.000354720000,  -1.24320,
,,,0.000354730000,  -1.24320,
,,,0.000354740000,  -1.24400,
,,,0.000354750000,  -1.24280,
,,,0.000354760000,  -1.24280,
,,,0.000354770000,  -1.24280,
,,,0.000354780000,  -1.24240,
,,,0.000354790000,  -1.24280,
,,,0.000354800000,  -1.24280,
,,,0.000354810000,  -1.24280,
,,,0.000354820000,  -1.24280,
,,,0.000354830000,  -1.24200,
,,,0.000354840000,  -1.24280,
,,,0.000354850000,  -1.24280,
,,,0.000354860000,  -1.24320,
,,,0.000354870000,  -1.24280,
,,,0.000354880000,  -1.24240,
,,,0.000354890000,  -1.24200,
,,,0.000354900000,  -1.24200,
,,,0.000354910000,  -1.24280,
,,,0.000354920000,  -1.24240,
,,,0.000354930000,  -1.24200,
,,,0.000354940000,  -1.24280,
,,,0.000354950000,  -1.24240,
,,,0.000354960000,  -1.24240,
,,,0.000354970000,  -1.24160,
,,,0.000354980000,  -1.24200,
,,,0.000354990000,  -1.24280,
,,,0.000355000000,  -1.24280,
,,,0.000355010000,  -1.24280,
,,,0.000355020000,  -1.24280,
,,,0.000355030000,  -1.24320,
,,,0.000355040000,  -1.24320,
,,,0.000355050000,  -1.24200,
,,,0.000355060000,  -1.24240,
,,,0.000355070000,  -1.24160,
,,,0.000355080000,  -1.24160,
,,,0.000355090000,  -1.24240,
,,,0.000355100000,  -1.24240,
,,,0.000355110000,  -1.24360,
,,,0.000355120000,  -1.24280,
,,,0.000355130000,  -1.24240,
,,,0.000355140000,  -1.24280,
,,,0.000355150000,  -1.24200,
,,,0.000355160000,  -1.24320,
,,,0.000355170000,  -1.24360,
,,,0.000355180000,  -1.24280,
,,,0.000355190000,  -1.24320,
,,,0.000355200000,  -1.24200,
,,,0.000355210000,  -1.24320,
,,,0.000355220000,  -1.24320,
,,,0.000355230000,  -1.24320,
,,,0.000355240000,  -1.24360,
,,,0.000355250000,  -1.24320,
,,,0.000355260000,  -1.24360,
,,,0.000355270000,  -1.24280,
,,,0.000355280000,  -1.24320,
,,,0.000355290000,  -1.24280,
,,,0.000355300000,  -1.24200,
,,,0.000355310000,  -1.24320,
,,,0.000355320000,  -1.24360,
,,,0.000355330000,  -1.24320,
,,,0.000355340000,  -1.24240,
,,,0.000355350000,  -1.24240,
,,,0.000355360000,  -1.24280,
,,,0.000355370000,  -1.24280,
,,,0.000355380000,  -1.24320,
,,,0.000355390000,  -1.24280,
,,,0.000355400000,  -1.24200,
,,,0.000355410000,  -1.24280,
,,,0.000355420000,  -1.24280,
,,,0.000355430000,  -1.24360,
,,,0.000355440000,  -1.24280,
,,,0.000355450000,  -1.24360,
,,,0.000355460000,  -1.24240,
,,,0.000355470000,  -1.24440,
,,,0.000355480000,  -1.24320,
,,,0.000355490000,  -1.24200,
,,,0.000355500000,  -1.24200,
,,,0.000355510000,  -1.24280,
,,,0.000355520000,  -1.24240,
,,,0.000355530000,  -1.24280,
,,,0.000355540000,  -1.24200,
,,,0.000355550000,  -1.24320,
,,,0.000355560000,  -1.24280,
,,,0.000355570000,  -1.24360,
,,,0.000355580000,  -1.24240,
,,,0.000355590000,  -1.24200,
,,,0.000355600000,  -1.24280,
,,,0.000355610000,  -1.24240,
,,,0.000355620000,  -1.24320,
,,,0.000355630000,  -1.24320,
,,,0.000355640000,  -1.24240,
,,,0.000355650000,  -1.24240,
,,,0.000355660000,  -1.24200,
,,,0.000355670000,  -1.24320,
,,,0.000355680000,  -1.24280,
,,,0.000355690000,  -1.24280,
,,,0.000355700000,  -1.24320,
,,,0.000355710000,  -1.24240,
,,,0.000355720000,  -1.24240,
,,,0.000355730000,  -1.24320,
,,,0.000355740000,  -1.24200,
,,,0.000355750000,  -1.24200,
,,,0.000355760000,  -1.24200,
,,,0.000355770000,  -1.24200,
,,,0.000355780000,  -1.24320,
,,,0.000355790000,  -1.24320,
,,,0.000355800000,  -1.24320,
,,,0.000355810000,  -1.24200,
,,,0.000355820000,  -1.24240,
,,,0.000355830000,  -1.24240,
,,,0.000355840000,  -1.24200,
,,,0.000355850000,  -1.24200,
,,,0.000355860000,  -1.24280,
,,,0.000355870000,  -1.24280,
,,,0.000355880000,  -1.24240,
,,,0.000355890000,  -1.24200,
,,,0.000355900000,  -1.24200,
,,,0.000355910000,  -1.24200,
,,,0.000355920000,  -1.24240,
,,,0.000355930000,  -1.24240,
,,,0.000355940000,  -1.24280,
,,,0.000355950000,  -1.24240,
,,,0.000355960000,  -1.24240,
,,,0.000355970000,  -1.24160,
,,,0.000355980000,  -1.24320,
,,,0.000355990000,  -1.24200,
,,,0.000356000000,  -1.24280,
,,,0.000356010000,  -1.24160,
,,,0.000356020000,  -1.24200,
,,,0.000356030000,  -1.24200,
,,,0.000356040000,  -1.24280,
,,,0.000356050000,  -1.24240,
,,,0.000356060000,  -1.24240,
,,,0.000356070000,  -1.24200,
,,,0.000356080000,  -1.24280,
,,,0.000356090000,  -1.24200,
,,,0.000356100000,  -1.24240,
,,,0.000356110000,  -1.24200,
,,,0.000356120000,  -1.24200,
,,,0.000356130000,  -1.24240,
,,,0.000356140000,  -1.24280,
,,,0.000356150000,  -1.24240,
,,,0.000356160000,  -1.24280,
,,,0.000356170000,  -1.24200,
,,,0.000356180000,  -1.24200,
,,,0.000356190000,  -1.24240,
,,,0.000356200000,  -1.24240,
,,,0.000356210000,  -1.24280,
,,,0.000356220000,  -1.24320,
,,,0.000356230000,  -1.24320,
,,,0.000356240000,  -1.24240,
,,,0.000356250000,  -1.24240,
,,,0.000356260000,  -1.24200,
,,,0.000356270000,  -1.24240,
,,,0.000356280000,  -1.24240,
,,,0.000356290000,  -1.24200,
,,,0.000356300000,  -1.24280,
,,,0.000356310000,  -1.24240,
,,,0.000356320000,  -1.24240,
,,,0.000356330000,  -1.24200,
,,,0.000356340000,  -1.24120,
,,,0.000356350000,  -1.24080,
,,,0.000356360000,  -1.24280,
,,,0.000356370000,  -1.24200,
,,,0.000356380000,  -1.24240,
,,,0.000356390000,  -1.24120,
,,,0.000356400000,  -1.24200,
,,,0.000356410000,  -1.24240,
,,,0.000356420000,  -1.24120,
,,,0.000356430000,  -1.24160,
,,,0.000356440000,  -1.24240,
,,,0.000356450000,  -1.24160,
,,,0.000356460000,  -1.24280,
,,,0.000356470000,  -1.24200,
,,,0.000356480000,  -1.24240,
,,,0.000356490000,  -1.24240,
,,,0.000356500000,  -1.24160,
,,,0.000356510000,  -1.24280,
,,,0.000356520000,  -1.24160,
,,,0.000356530000,  -1.24120,
,,,0.000356540000,  -1.24240,
,,,0.000356550000,  -1.24120,
,,,0.000356560000,  -1.24240,
,,,0.000356570000,  -1.24240,
,,,0.000356580000,  -1.24080,
,,,0.000356590000,  -1.24160,
,,,0.000356600000,  -1.24120,
,,,0.000356610000,  -1.24200,
,,,0.000356620000,  -1.24120,
,,,0.000356630000,  -1.24200,
,,,0.000356640000,  -1.24120,
,,,0.000356650000,  -1.24560,
,,,0.000356660000,  -1.24200,
,,,0.000356670000,  -1.24400,
,,,0.000356680000,  -1.24160,
,,,0.000356690000,  -1.24280,
,,,0.000356700000,  -1.24160,
,,,0.000356710000,  -1.24360,
,,,0.000356720000,  -1.24960,
,,,0.000356730000,  -1.24960,
,,,0.000356740000,  -1.24200,
,,,0.000356750000,  -1.24280,
,,,0.000356760000,  -1.24400,
,,,0.000356770000,  -1.24000,
,,,0.000356780000,  -1.24040,
,,,0.000356790000,  -1.24240,
,,,0.000356800000,  -1.24200,
,,,0.000356810000,  -1.24160,
,,,0.000356820000,  -1.24200,
,,,0.000356830000,  -1.24200,
,,,0.000356840000,  -1.24160,
,,,0.000356850000,  -1.24120,
,,,0.000356860000,  -1.24120,
,,,0.000356870000,  -1.24160,
,,,0.000356880000,  -1.24120,
,,,0.000356890000,  -1.24160,
,,,0.000356900000,  -1.24200,
,,,0.000356910000,  -1.24160,
,,,0.000356920000,  -1.24120,
,,,0.000356930000,  -1.24120,
,,,0.000356940000,  -1.24160,
,,,0.000356950000,  -1.24160,
,,,0.000356960000,  -1.24080,
,,,0.000356970000,  -1.24240,
,,,0.000356980000,  -1.24080,
,,,0.000356990000,  -1.24120,
,,,0.000357000000,  -1.24120,
,,,0.000357010000,  -1.24040,
,,,0.000357020000,  -1.24080,
,,,0.000357030000,  -1.24120,
,,,0.000357040000,  -1.24080,
,,,0.000357050000,  -1.24080,
,,,0.000357060000,  -1.24120,
,,,0.000357070000,  -1.24120,
,,,0.000357080000,  -1.24000,
,,,0.000357090000,  -1.24120,
,,,0.000357100000,  -1.24080,
,,,0.000357110000,  -1.24120,
,,,0.000357120000,  -1.24120,
,,,0.000357130000,  -1.24080,
,,,0.000357140000,  -1.24120,
,,,0.000357150000,  -1.24040,
,,,0.000357160000,  -1.24080,
,,,0.000357170000,  -1.24080,
,,,0.000357180000,  -1.24120,
,,,0.000357190000,  -1.24160,
,,,0.000357200000,  -1.24160,
,,,0.000357210000,  -1.24160,
,,,0.000357220000,  -1.24200,
,,,0.000357230000,  -1.24200,
,,,0.000357240000,  -1.24160,
,,,0.000357250000,  -1.24160,
,,,0.000357260000,  -1.24160,
,,,0.000357270000,  -1.24200,
,,,0.000357280000,  -1.24040,
,,,0.000357290000,  -1.24080,
,,,0.000357300000,  -1.24160,
,,,0.000357310000,  -1.24120,
,,,0.000357320000,  -1.24160,
,,,0.000357330000,  -1.24120,
,,,0.000357340000,  -1.24160,
,,,0.000357350000,  -1.24200,
,,,0.000357360000,  -1.24120,
,,,0.000357370000,  -1.24240,
,,,0.000357380000,  -1.24240,
,,,0.000357390000,  -1.24200,
,,,0.000357400000,  -1.24160,
,,,0.000357410000,  -1.24160,
,,,0.000357420000,  -1.24120,
,,,0.000357430000,  -1.24240,
,,,0.000357440000,  -1.24200,
,,,0.000357450000,  -1.24320,
,,,0.000357460000,  -1.24160,
,,,0.000357470000,  -1.24200,
,,,0.000357480000,  -1.24160,
,,,0.000357490000,  -1.24120,
,,,0.000357500000,  -1.24120,
,,,0.000357510000,  -1.24080,
,,,0.000357520000,  -1.24120,
,,,0.000357530000,  -1.24240,
,,,0.000357540000,  -1.24240,
,,,0.000357550000,  -1.24240,
,,,0.000357560000,  -1.24240,
,,,0.000357570000,  -1.24160,
,,,0.000357580000,  -1.24200,
,,,0.000357590000,  -1.24120,
,,,0.000357600000,  -1.24200,
,,,0.000357610000,  -1.24280,
,,,0.000357620000,  -1.24160,
,,,0.000357630000,  -1.24200,
,,,0.000357640000,  -1.24240,
,,,0.000357650000,  -1.24240,
,,,0.000357660000,  -1.24280,
,,,0.000357670000,  -1.24240,
,,,0.000357680000,  -1.24280,
,,,0.000357690000,  -1.24200,
,,,0.000357700000,  -1.24120,
,,,0.000357710000,  -1.24240,
,,,0.000357720000,  -1.24160,
,,,0.000357730000,  -1.24120,
,,,0.000357740000,  -1.24160,
,,,0.000357750000,  -1.24240,
,,,0.000357760000,  -1.24280,
,,,0.000357770000,  -1.24200,
,,,0.000357780000,  -1.24120,
,,,0.000357790000,  -1.24200,
,,,0.000357800000,  -1.24200,
,,,0.000357810000,  -1.24200,
,,,0.000357820000,  -1.24160,
,,,0.000357830000,  -1.24200,
,,,0.000357840000,  -1.24240,
,,,0.000357850000,  -1.24240,
,,,0.000357860000,  -1.24200,
,,,0.000357870000,  -1.24120,
,,,0.000357880000,  -1.24240,
,,,0.000357890000,  -1.24160,
,,,0.000357900000,  -1.24200,
,,,0.000357910000,  -1.24240,
,,,0.000357920000,  -1.24240,
,,,0.000357930000,  -1.24120,
,,,0.000357940000,  -1.24160,
,,,0.000357950000,  -1.24160,
,,,0.000357960000,  -1.24280,
,,,0.000357970000,  -1.24200,
,,,0.000357980000,  -1.24280,
,,,0.000357990000,  -1.24160,
,,,0.000358000000,  -1.24160,
,,,0.000358010000,  -1.24200,
,,,0.000358020000,  -1.24160,
,,,0.000358030000,  -1.24280,
,,,0.000358040000,  -1.24160,
,,,0.000358050000,  -1.24200,
,,,0.000358060000,  -1.24240,
,,,0.000358070000,  -1.24240,
,,,0.000358080000,  -1.24280,
,,,0.000358090000,  -1.24160,
,,,0.000358100000,  -1.24160,
,,,0.000358110000,  -1.24200,
,,,0.000358120000,  -1.24160,
,,,0.000358130000,  -1.24280,
,,,0.000358140000,  -1.24200,
,,,0.000358150000,  -1.24200,
,,,0.000358160000,  -1.24240,
,,,0.000358170000,  -1.24120,
,,,0.000358180000,  -1.24160,
,,,0.000358190000,  -1.24240,
,,,0.000358200000,  -1.24280,
,,,0.000358210000,  -1.24280,
,,,0.000358220000,  -1.24280,
,,,0.000358230000,  -1.24240,
,,,0.000358240000,  -1.24200,
,,,0.000358250000,  -1.24200,
,,,0.000358260000,  -1.24200,
,,,0.000358270000,  -1.24200,
,,,0.000358280000,  -1.24200,
,,,0.000358290000,  -1.24280,
,,,0.000358300000,  -1.24280,
,,,0.000358310000,  -1.24240,
,,,0.000358320000,  -1.24200,
,,,0.000358330000,  -1.24200,
,,,0.000358340000,  -1.24240,
,,,0.000358350000,  -1.24240,
,,,0.000358360000,  -1.24320,
,,,0.000358370000,  -1.24240,
,,,0.000358380000,  -1.24160,
,,,0.000358390000,  -1.24240,
,,,0.000358400000,  -1.24160,
,,,0.000358410000,  -1.24240,
,,,0.000358420000,  -1.24240,
,,,0.000358430000,  -1.24200,
,,,0.000358440000,  -1.24320,
,,,0.000358450000,  -1.24240,
,,,0.000358460000,  -1.24160,
,,,0.000358470000,  -1.24200,
,,,0.000358480000,  -1.24200,
,,,0.000358490000,  -1.24120,
,,,0.000358500000,  -1.24160,
,,,0.000358510000,  -1.24160,
,,,0.000358520000,  -1.24320,
,,,0.000358530000,  -1.24200,
,,,0.000358540000,  -1.24280,
,,,0.000358550000,  -1.24160,
,,,0.000358560000,  -1.24200,
,,,0.000358570000,  -1.24240,
,,,0.000358580000,  -1.24240,
,,,0.000358590000,  -1.24200,
,,,0.000358600000,  -1.24320,
,,,0.000358610000,  -1.24240,
,,,0.000358620000,  -1.24240,
,,,0.000358630000,  -1.24280,
,,,0.000358640000,  -1.24280,
,,,0.000358650000,  -1.24280,
,,,0.000358660000,  -1.24240,
,,,0.000358670000,  -1.24200,
,,,0.000358680000,  -1.24200,
,,,0.000358690000,  -1.24160,
,,,0.000358700000,  -1.24280,
,,,0.000358710000,  -1.24240,
,,,0.000358720000,  -1.24160,
,,,0.000358730000,  -1.24240,
,,,0.000358740000,  -1.24160,
,,,0.000358750000,  -1.24200,
,,,0.000358760000,  -1.24200,
,,,0.000358770000,  -1.24240,
,,,0.000358780000,  -1.24280,
,,,0.000358790000,  -1.24200,
,,,0.000358800000,  -1.24280,
,,,0.000358810000,  -1.24280,
,,,0.000358820000,  -1.24200,
,,,0.000358830000,  -1.24160,
,,,0.000358840000,  -1.24160,
,,,0.000358850000,  -1.24240,
,,,0.000358860000,  -1.24160,
,,,0.000358870000,  -1.24240,
,,,0.000358880000,  -1.24160,
,,,0.000358890000,  -1.24160,
,,,0.000358900000,  -1.24160,
,,,0.000358910000,  -1.24240,
,,,0.000358920000,  -1.24240,
,,,0.000358930000,  -1.24240,
,,,0.000358940000,  -1.24200,
,,,0.000358950000,  -1.24320,
,,,0.000358960000,  -1.24120,
,,,0.000358970000,  -1.24200,
,,,0.000358980000,  -1.24160,
,,,0.000358990000,  -1.24160,
,,,0.000359000000,  -1.24320,
,,,0.000359010000,  -1.24120,
,,,0.000359020000,  -1.24200,
,,,0.000359030000,  -1.24160,
,,,0.000359040000,  -1.24200,
,,,0.000359050000,  -1.24240,
,,,0.000359060000,  -1.24160,
,,,0.000359070000,  -1.24200,
,,,0.000359080000,  -1.24240,
,,,0.000359090000,  -1.24120,
,,,0.000359100000,  -1.24160,
,,,0.000359110000,  -1.24200,
,,,0.000359120000,  -1.24240,
,,,0.000359130000,  -1.24240,
,,,0.000359140000,  -1.24200,
,,,0.000359150000,  -1.24200,
,,,0.000359160000,  -1.24200,
,,,0.000359170000,  -1.24240,
,,,0.000359180000,  -1.24280,
,,,0.000359190000,  -1.24200,
,,,0.000359200000,  -1.24320,
,,,0.000359210000,  -1.24200,
,,,0.000359220000,  -1.24280,
,,,0.000359230000,  -1.24240,
