semiconductor/data/TEK0061.CSV

Record Length,2.500000e+03,,   0.000340200000,  -0.00816,
Sample Interval,2.000000e-08,,   0.000340220000,  -0.00840,
Trigger Point,-1.701000000000e+04,,   0.000340240000,  -0.00800,
,,,   0.000340260000,  -0.00712,
,,,   0.000340280000,  -0.00800,
,,,   0.000340300000,  -0.00816,
Source,CH1,,   0.000340320000,  -0.00832,
Vertical Units,V,,   0.000340340000,  -0.00736,
Vertical Scale,2.000000e-03,,   0.000340360000,  -0.00808,
Vertical Offset,5.600000e-03,,   0.000340380000,  -0.00832,
Horizontal Units,s,,   0.000340400000,  -0.00824,
Horizontal Scale,5.000000e-06,,   0.000340420000,  -0.00784,
Pt Fmt,Y,,   0.000340440000,  -0.00816,
Yzero,0.000000e+00,,   0.000340460000,  -0.00848,
Probe Atten,1.000000e+00,,   0.000340480000,  -0.00864,
Model Number,TDS1002B,,   0.000340500000,  -0.00800,
Serial Number,C052304,,   0.000340520000,  -0.00800,
Firmware Version,FV:v22.01,,   0.000340540000,  -0.00840,
,,,0.000340560000,  -0.00832,
,,,0.000340580000,  -0.00832,
,,,0.000340600000,  -0.00824,
,,,0.000340620000,  -0.00856,
,,,0.000340640000,  -0.00808,
,,,0.000340660000,  -0.00848,
,,,0.000340680000,  -0.00840,
,,,0.000340700000,  -0.00840,
,,,0.000340720000,  -0.00800,
,,,0.000340740000,  -0.00816,
,,,0.000340760000,  -0.00792,
,,,0.000340780000,  -0.00824,
,,,0.000340800000,  -0.00768,
,,,0.000340820000,  -0.00816,
,,,0.000340840000,  -0.00824,
,,,0.000340860000,  -0.00816,
,,,0.000340880000,  -0.00752,
,,,0.000340900000,  -0.00776,
,,,0.000340920000,  -0.00784,
,,,0.000340940000,  -0.00848,
,,,0.000340960000,  -0.00848,
,,,0.000340980000,  -0.00752,
,,,0.000341000000,  -0.00888,
,,,0.000341020000,  -0.00840,
,,,0.000341040000,  -0.00808,
,,,0.000341060000,  -0.00768,
,,,0.000341080000,  -0.00784,
,,,0.000341100000,  -0.00816,
,,,0.000341120000,  -0.00848,
,,,0.000341140000,  -0.00760,
,,,0.000341160000,  -0.00792,
,,,0.000341180000,  -0.00832,
,,,0.000341200000,  -0.00816,
,,,0.000341220000,  -0.00872,
,,,0.000341240000,  -0.00776,
,,,0.000341260000,  -0.00744,
,,,0.000341280000,  -0.00736,
,,,0.000341300000,  -0.00760,
,,,0.000341320000,  -0.00816,
,,,0.000341340000,  -0.00768,
,,,0.000341360000,  -0.00776,
,,,0.000341380000,  -0.00776,
,,,0.000341400000,  -0.00776,
,,,0.000341420000,  -0.00808,
,,,0.000341440000,  -0.00792,
,,,0.000341460000,  -0.00792,
,,,0.000341480000,  -0.00776,
,,,0.000341500000,  -0.00760,
,,,0.000341520000,  -0.00792,
,,,0.000341540000,  -0.00784,
,,,0.000341560000,  -0.00736,
,,,0.000341580000,  -0.00752,
,,,0.000341600000,  -0.00744,
,,,0.000341620000,  -0.00800,
,,,0.000341640000,  -0.00784,
,,,0.000341660000,  -0.00768,
,,,0.000341680000,  -0.00688,
,,,0.000341700000,  -0.00784,
,,,0.000341720000,  -0.00864,
,,,0.000341740000,  -0.00744,
,,,0.000341760000,  -0.00712,
,,,0.000341780000,  -0.00752,
,,,0.000341800000,  -0.00824,
,,,0.000341820000,  -0.00808,
,,,0.000341840000,  -0.00776,
,,,0.000341860000,  -0.00760,
,,,0.000341880000,  -0.00768,
,,,0.000341900000,  -0.00776,
,,,0.000341920000,  -0.00792,
,,,0.000341940000,  -0.00752,
,,,0.000341960000,  -0.00752,
,,,0.000341980000,  -0.00728,
,,,0.000342000000,  -0.00744,
,,,0.000342020000,  -0.00768,
,,,0.000342040000,  -0.00784,
,,,0.000342060000,  -0.00808,
,,,0.000342080000,  -0.00728,
,,,0.000342100000,  -0.00680,
,,,0.000342120000,  -0.00736,
,,,0.000342140000,  -0.00720,
,,,0.000342160000,  -0.00752,
,,,0.000342180000,  -0.00736,
,,,0.000342200000,  -0.00712,
,,,0.000342220000,  -0.00768,
,,,0.000342240000,  -0.00776,
,,,0.000342260000,  -0.00744,
,,,0.000342280000,  -0.00704,
,,,0.000342300000,  -0.00736,
,,,0.000342320000,  -0.00728,
,,,0.000342340000,  -0.00744,
,,,0.000342360000,  -0.00736,
,,,0.000342380000,  -0.00800,
,,,0.000342400000,  -0.00832,
,,,0.000342420000,  -0.00792,
,,,0.000342440000,  -0.00696,
,,,0.000342460000,  -0.00776,
,,,0.000342480000,  -0.00816,
,,,0.000342500000,  -0.00808,
,,,0.000342520000,  -0.00768,
,,,0.000342540000,  -0.00736,
,,,0.000342560000,  -0.00792,
,,,0.000342580000,  -0.00800,
,,,0.000342600000,  -0.00768,
,,,0.000342620000,  -0.00784,
,,,0.000342640000,  -0.00840,
,,,0.000342660000,  -0.00832,
,,,0.000342680000,  -0.00840,
,,,0.000342700000,  -0.00784,
,,,0.000342720000,  -0.00816,
,,,0.000342740000,  -0.00848,
,,,0.000342760000,  -0.00792,
,,,0.000342780000,  -0.00776,
,,,0.000342800000,  -0.00808,
,,,0.000342820000,  -0.00824,
,,,0.000342840000,  -0.00880,
,,,0.000342860000,  -0.00832,
,,,0.000342880000,  -0.00784,
,,,0.000342900000,  -0.00808,
,,,0.000342920000,  -0.00816,
,,,0.000342940000,  -0.00840,
,,,0.000342960000,  -0.00832,
,,,0.000342980000,  -0.00800,
,,,0.000343000000,  -0.00800,
,,,0.000343020000,  -0.00840,
,,,0.000343040000,  -0.00816,
,,,0.000343060000,  -0.00848,
,,,0.000343080000,  -0.00784,
,,,0.000343100000,  -0.00768,
,,,0.000343120000,  -0.00840,
,,,0.000343140000,  -0.00880,
,,,0.000343160000,  -0.00848,
,,,0.000343180000,  -0.00784,
,,,0.000343200000,  -0.00840,
,,,0.000343220000,  -0.00832,
,,,0.000343240000,  -0.00824,
,,,0.000343260000,  -0.00824,
,,,0.000343280000,  -0.00768,
,,,0.000343300000,  -0.00856,
,,,0.000343320000,  -0.00832,
,,,0.000343340000,  -0.00864,
,,,0.000343360000,  -0.00840,
,,,0.000343380000,  -0.00840,
,,,0.000343400000,  -0.00824,
,,,0.000343420000,  -0.00840,
,,,0.000343440000,  -0.00864,
,,,0.000343460000,  -0.00840,
,,,0.000343480000,  -0.00808,
,,,0.000343500000,  -0.00792,
,,,0.000343520000,  -0.00808,
,,,0.000343540000,  -0.00792,
,,,0.000343560000,  -0.00880,
,,,0.000343580000,  -0.00896,
,,,0.000343600000,  -0.00752,
,,,0.000343620000,  -0.00768,
,,,0.000343640000,  -0.00848,
,,,0.000343660000,  -0.00920,
,,,0.000343680000,  -0.00816,
,,,0.000343700000,  -0.00824,
,,,0.000343720000,  -0.00808,
,,,0.000343740000,  -0.00840,
,,,0.000343760000,  -0.00784,
,,,0.000343780000,  -0.00776,
,,,0.000343800000,  -0.00800,
,,,0.000343820000,  -0.00784,
,,,0.000343840000,  -0.00768,
,,,0.000343860000,  -0.00856,
,,,0.000343880000,  -0.00848,
,,,0.000343900000,  -0.00824,
,,,0.000343920000,  -0.00808,
,,,0.000343940000,  -0.00768,
,,,0.000343960000,  -0.00800,
,,,0.000343980000,  -0.00800,
,,,0.000344000000,  -0.00784,
,,,0.000344020000,  -0.00816,
,,,0.000344040000,  -0.00880,
,,,0.000344060000,  -0.00832,
,,,0.000344080000,  -0.00776,
,,,0.000344100000,  -0.00776,
,,,0.000344120000,  -0.00808,
,,,0.000344140000,  -0.00824,
,,,0.000344160000,  -0.00848,
,,,0.000344180000,  -0.00776,
,,,0.000344200000,  -0.00744,
,,,0.000344220000,  -0.00776,
,,,0.000344240000,  -0.00808,
,,,0.000344260000,  -0.00856,
,,,0.000344280000,  -0.00800,
,,,0.000344300000,  -0.00800,
,,,0.000344320000,  -0.00824,
,,,0.000344340000,  -0.00848,
,,,0.000344360000,  -0.00800,
,,,0.000344380000,  -0.00776,
,,,0.000344400000,  -0.00784,
,,,0.000344420000,  -0.00736,
,,,0.000344440000,  -0.00792,
,,,0.000344460000,  -0.00872,
,,,0.000344480000,  -0.00800,
,,,0.000344500000,  -0.00712,
,,,0.000344520000,  -0.00792,
,,,0.000344540000,  -0.00816,
,,,0.000344560000,  -0.00776,
,,,0.000344580000,  -0.00720,
,,,0.000344600000,  -0.00768,
,,,0.000344620000,  -0.00816,
,,,0.000344640000,  -0.00808,
,,,0.000344660000,  -0.00768,
,,,0.000344680000,  -0.00800,
,,,0.000344700000,  -0.00808,
,,,0.000344720000,  -0.00848,
,,,0.000344740000,  -0.00784,
,,,0.000344760000,  -0.00784,
,,,0.000344780000,  -0.00784,
,,,0.000344800000,  -0.00888,
,,,0.000344820000,  -0.00824,
,,,0.000344840000,  -0.00752,
,,,0.000344860000,  -0.00824,
,,,0.000344880000,  -0.00760,
,,,0.000344900000,  -0.00768,
,,,0.000344920000,  -0.00800,
,,,0.000344940000,  -0.00800,
,,,0.000344960000,  -0.00832,
,,,0.000344980000,  -0.00776,
,,,0.000345000000,  -0.00744,
,,,0.000345020000,  -0.00784,
,,,0.000345040000,  -0.00856,
,,,0.000345060000,  -0.00792,
,,,0.000345080000,  -0.00768,
,,,0.000345100000,  -0.00816,
,,,0.000345120000,  -0.00792,
,,,0.000345140000,  -0.00760,
,,,0.000345160000,  -0.00784,
,,,0.000345180000,  -0.00824,
,,,0.000345200000,  -0.00800,
,,,0.000345220000,  -0.00744,
,,,0.000345240000,  -0.00720,
,,,0.000345260000,  -0.00768,
,,,0.000345280000,  -0.00792,
,,,0.000345300000,  -0.00768,
,,,0.000345320000,  -0.00752,
,,,0.000345340000,  -0.00776,
,,,0.000345360000,  -0.00856,
,,,0.000345380000,  -0.00808,
,,,0.000345400000,  -0.00792,
,,,0.000345420000,  -0.00792,
,,,0.000345440000,  -0.00768,
,,,0.000345460000,  -0.00808,
,,,0.000345480000,  -0.00832,
,,,0.000345500000,  -0.00752,
,,,0.000345520000,  -0.00744,
,,,0.000345540000,  -0.00816,
,,,0.000345560000,  -0.00832,
,,,0.000345580000,  -0.00776,
,,,0.000345600000,  -0.00784,
,,,0.000345620000,  -0.00824,
,,,0.000345640000,  -0.00864,
,,,0.000345660000,  -0.00824,
,,,0.000345680000,  -0.00768,
,,,0.000345700000,  -0.00824,
,,,0.000345720000,  -0.00856,
,,,0.000345740000,  -0.00816,
,,,0.000345760000,  -0.00808,
,,,0.000345780000,  -0.00824,
,,,0.000345800000,  -0.00800,
,,,0.000345820000,  -0.00792,
,,,0.000345840000,  -0.00832,
,,,0.000345860000,  -0.00816,
,,,0.000345880000,  -0.00824,
,,,0.000345900000,  -0.00824,
,,,0.000345920000,  -0.00808,
,,,0.000345940000,  -0.00824,
,,,0.000345960000,  -0.00800,
,,,0.000345980000,  -0.00800,
,,,0.000346000000,  -0.00784,
,,,0.000346020000,  -0.00840,
,,,0.000346040000,  -0.00864,
,,,0.000346060000,  -0.00848,
,,,0.000346080000,  -0.00848,
,,,0.000346100000,  -0.00776,
,,,0.000346120000,  -0.00792,
,,,0.000346140000,  -0.00824,
,,,0.000346160000,  -0.00800,
,,,0.000346180000,  -0.00784,
,,,0.000346200000,  -0.00800,
,,,0.000346220000,  -0.00792,
,,,0.000346240000,  -0.00840,
,,,0.000346260000,  -0.00848,
,,,0.000346280000,  -0.00848,
,,,0.000346300000,  -0.00800,
,,,0.000346320000,  -0.00864,
,,,0.000346340000,  -0.00824,
,,,0.000346360000,  -0.00864,
,,,0.000346380000,  -0.00816,
,,,0.000346400000,  -0.00856,
,,,0.000346420000,  -0.00840,
,,,0.000346440000,  -0.00864,
,,,0.000346460000,  -0.00832,
,,,0.000346480000,  -0.00800,
,,,0.000346500000,  -0.00808,
,,,0.000346520000,  -0.00864,
,,,0.000346540000,  -0.00872,
,,,0.000346560000,  -0.00824,
,,,0.000346580000,  -0.00792,
,,,0.000346600000,  -0.00768,
,,,0.000346620000,  -0.00816,
,,,0.000346640000,  -0.00832,
,,,0.000346660000,  -0.00800,
,,,0.000346680000,  -0.00776,
,,,0.000346700000,  -0.00832,
,,,0.000346720000,  -0.00808,
,,,0.000346740000,  -0.00768,
,,,0.000346760000,  -0.00728,
,,,0.000346780000,  -0.00768,
,,,0.000346800000,  -0.00824,
,,,0.000346820000,  -0.00800,
,,,0.000346840000,  -0.00784,
,,,0.000346860000,  -0.00816,
,,,0.000346880000,  -0.00768,
,,,0.000346900000,  -0.00776,
,,,0.000346920000,  -0.00784,
,,,0.000346940000,  -0.00832,
,,,0.000346960000,  -0.00776,
,,,0.000346980000,  -0.00776,
,,,0.000347000000,  -0.00784,
,,,0.000347020000,  -0.00760,
,,,0.000347040000,  -0.00792,
,,,0.000347060000,  -0.00848,
,,,0.000347080000,  -0.00760,
,,,0.000347100000,  -0.00736,
,,,0.000347120000,  -0.00824,
,,,0.000347140000,  -0.00840,
,,,0.000347160000,  -0.00784,
,,,0.000347180000,  -0.00776,
,,,0.000347200000,  -0.00776,
,,,0.000347220000,  -0.00824,
,,,0.000347240000,  -0.00816,
,,,0.000347260000,  -0.00752,
,,,0.000347280000,  -0.00720,
,,,0.000347300000,  -0.00800,
,,,0.000347320000,  -0.00824,
,,,0.000347340000,  -0.00856,
,,,0.000347360000,  -0.00768,
,,,0.000347380000,  -0.00752,
,,,0.000347400000,  -0.00808,
,,,0.000347420000,  -0.00832,
,,,0.000347440000,  -0.00824,
,,,0.000347460000,  -0.00776,
,,,0.000347480000,  -0.00784,
,,,0.000347500000,  -0.00800,
,,,0.000347520000,  -0.00800,
,,,0.000347540000,  -0.00808,
,,,0.000347560000,  -0.00816,
,,,0.000347580000,  -0.00808,
,,,0.000347600000,  -0.00824,
,,,0.000347620000,  -0.00840,
,,,0.000347640000,  -0.00824,
,,,0.000347660000,  -0.00776,
,,,0.000347680000,  -0.00824,
,,,0.000347700000,  -0.00856,
,,,0.000347720000,  -0.00808,
,,,0.000347740000,  -0.00800,
,,,0.000347760000,  -0.00816,
,,,0.000347780000,  -0.00840,
,,,0.000347800000,  -0.00888,
,,,0.000347820000,  -0.00824,
,,,0.000347840000,  -0.00832,
,,,0.000347860000,  -0.00848,
,,,0.000347880000,  -0.00792,
,,,0.000347900000,  -0.00752,
,,,0.000347920000,  -0.00880,
,,,0.000347940000,  -0.00888,
,,,0.000347960000,  -0.00848,
,,,0.000347980000,  -0.00760,
,,,0.000348000000,  -0.00832,
,,,0.000348020000,  -0.00896,
,,,0.000348040000,  -0.00888,
,,,0.000348060000,  -0.00832,
,,,0.000348080000,  -0.00784,
,,,0.000348100000,  -0.00832,
,,,0.000348120000,  -0.00824,
,,,0.000348140000,  -0.00848,
,,,0.000348160000,  -0.00808,
,,,0.000348180000,  -0.00832,
,,,0.000348200000,  -0.00840,
,,,0.000348220000,  -0.00808,
,,,0.000348240000,  -0.00800,
,,,0.000348260000,  -0.00808,
,,,0.000348280000,  -0.00808,
,,,0.000348300000,  -0.00840,
,,,0.000348320000,  -0.00744,
,,,0.000348340000,  -0.00768,
,,,0.000348360000,  -0.00832,
,,,0.000348380000,  -0.00848,
,,,0.000348400000,  -0.00864,
,,,0.000348420000,  -0.00840,
,,,0.000348440000,  -0.00824,
,,,0.000348460000,  -0.00808,
,,,0.000348480000,  -0.00792,
,,,0.000348500000,  -0.00792,
,,,0.000348520000,  -0.00800,
,,,0.000348540000,  -0.00792,
,,,0.000348560000,  -0.00776,
,,,0.000348580000,  -0.00832,
,,,0.000348600000,  -0.00840,
,,,0.000348620000,  -0.00808,
,,,0.000348640000,  -0.00768,
,,,0.000348660000,  -0.00784,
,,,0.000348680000,  -0.00744,
,,,0.000348700000,  -0.00784,
,,,0.000348720000,  -0.00848,
,,,0.000348740000,  -0.00784,
,,,0.000348760000,  -0.00744,
,,,0.000348780000,  -0.00728,
,,,0.000348800000,  -0.00768,
,,,0.000348820000,  -0.00824,
,,,0.000348840000,  -0.00776,
,,,0.000348860000,  -0.00728,
,,,0.000348880000,  -0.00784,
,,,0.000348900000,  -0.00840,
,,,0.000348920000,  -0.00824,
,,,0.000348940000,  -0.00728,
,,,0.000348960000,  -0.00776,
,,,0.000348980000,  -0.00808,
,,,0.000349000000,  -0.00784,
,,,0.000349020000,  -0.00800,
,,,0.000349040000,  -0.00752,
,,,0.000349060000,  -0.00808,
,,,0.000349080000,  -0.00824,
,,,0.000349100000,  -0.00792,
,,,0.000349120000,  -0.00744,
,,,0.000349140000,  -0.00848,
,,,0.000349160000,  -0.00808,
,,,0.000349180000,  -0.00792,
,,,0.000349200000,  -0.00800,
,,,0.000349220000,  -0.00768,
,,,0.000349240000,  -0.00848,
,,,0.000349260000,  -0.00784,
,,,0.000349280000,  -0.00832,
,,,0.000349300000,  -0.00816,
,,,0.000349320000,  -0.00824,
,,,0.000349340000,  -0.00776,
,,,0.000349360000,  -0.00752,
,,,0.000349380000,  -0.00832,
,,,0.000349400000,  -0.00816,
,,,0.000349420000,  -0.00840,
,,,0.000349440000,  -0.00792,
,,,0.000349460000,  -0.00800,
,,,0.000349480000,  -0.00728,
,,,0.000349500000,  -0.00784,
,,,0.000349520000,  -0.00792,
,,,0.000349540000,  -0.00832,
,,,0.000349560000,  -0.00776,
,,,0.000349580000,  -0.00800,
,,,0.000349600000,  -0.00824,
,,,0.000349620000,  -0.00840,
,,,0.000349640000,  -0.00832,
,,,0.000349660000,  -0.00744,
,,,0.000349680000,  -0.00776,
,,,0.000349700000,  -0.00784,
,,,0.000349720000,  -0.00832,
,,,0.000349740000,  -0.00848,
,,,0.000349760000,  -0.00856,
,,,0.000349780000,  -0.00768,
,,,0.000349800000,  -0.00832,
,,,0.000349820000,  -0.00864,
,,,0.000349840000,  -0.00864,
,,,0.000349860000,  -0.00824,
,,,0.000349880000,  -0.00800,
,,,0.000349900000,  -0.00816,
,,,0.000349920000,  -0.00840,
,,,0.000349940000,  -0.00840,
,,,0.000349960000,  -0.00776,
,,,0.000349980000,  -0.00808,
,,,0.000350000000,  -0.00872,
,,,0.000350020000,  -0.00816,
,,,0.000350040000,  -0.00792,
,,,0.000350060000,  -0.00800,
,,,0.000350080000,  -0.00824,
,,,0.000350100000,  -0.00848,
,,,0.000350120000,  -0.00816,
,,,0.000350140000,  -0.00768,
,,,0.000350160000,  -0.00776,
,,,0.000350180000,  -0.00808,
,,,0.000350200000,  -0.00776,
,,,0.000350220000,  -0.00800,
,,,0.000350240000,  -0.00784,
,,,0.000350260000,  -0.00824,
,,,0.000350280000,  -0.00864,
,,,0.000350300000,  -0.00832,
,,,0.000350320000,  -0.00816,
,,,0.000350340000,  -0.00752,
,,,0.000350360000,  -0.00824,
,,,0.000350380000,  -0.00856,
,,,0.000350400000,  -0.00840,
,,,0.000350420000,  -0.00776,
,,,0.000350440000,  -0.00824,
,,,0.000350460000,  -0.00848,
,,,0.000350480000,  -0.00856,
,,,0.000350500000,  -0.00800,
,,,0.000350520000,  -0.00776,
,,,0.000350540000,  -0.00816,
,,,0.000350560000,  -0.00864,
,,,0.000350580000,  -0.00800,
,,,0.000350600000,  -0.00776,
,,,0.000350620000,  -0.00840,
,,,0.000350640000,  -0.00832,
,,,0.000350660000,  -0.00800,
,,,0.000350680000,  -0.00784,
,,,0.000350700000,  -0.00840,
,,,0.000350720000,  -0.00816,
,,,0.000350740000,  -0.00808,
,,,0.000350760000,  -0.00848,
,,,0.000350780000,  -0.00808,
,,,0.000350800000,  -0.00832,
,,,0.000350820000,  -0.00776,
,,,0.000350840000,  -0.00816,
,,,0.000350860000,  -0.00864,
,,,0.000350880000,  -0.00840,
,,,0.000350900000,  -0.00760,
,,,0.000350920000,  -0.00728,
,,,0.000350940000,  -0.00832,
,,,0.000350960000,  -0.00784,
,,,0.000350980000,  -0.00840,
,,,0.000351000000,  -0.00816,
,,,0.000351020000,  -0.00824,
,,,0.000351040000,  -0.00808,
,,,0.000351060000,  -0.00824,
,,,0.000351080000,  -0.00832,
,,,0.000351100000,  -0.00816,
,,,0.000351120000,  -0.00760,
,,,0.000351140000,  -0.00744,
,,,0.000351160000,  -0.00776,
,,,0.000351180000,  -0.00848,
,,,0.000351200000,  -0.00832,
,,,0.000351220000,  -0.00784,
,,,0.000351240000,  -0.00744,
,,,0.000351260000,  -0.00800,
,,,0.000351280000,  -0.00840,
,,,0.000351300000,  -0.00824,
,,,0.000351320000,  -0.00792,
,,,0.000351340000,  -0.00736,
,,,0.000351360000,  -0.00760,
,,,0.000351380000,  -0.00784,
,,,0.000351400000,  -0.00824,
,,,0.000351420000,  -0.00776,
,,,0.000351440000,  -0.00776,
,,,0.000351460000,  -0.00816,
,,,0.000351480000,  -0.00784,
,,,0.000351500000,  -0.00800,
,,,0.000351520000,  -0.00800,
,,,0.000351540000,  -0.00784,
,,,0.000351560000,  -0.00800,
,,,0.000351580000,  -0.00808,
,,,0.000351600000,  -0.00752,
,,,0.000351620000,  -0.00792,
,,,0.000351640000,  -0.00736,
,,,0.000351660000,  -0.00816,
,,,0.000351680000,  -0.00784,
,,,0.000351700000,  -0.00744,
,,,0.000351720000,  -0.00736,
,,,0.000351740000,  -0.00784,
,,,0.000351760000,  -0.00760,
,,,0.000351780000,  -0.00768,
,,,0.000351800000,  -0.00720,
,,,0.000351820000,  -0.00760,
,,,0.000351840000,  -0.00784,
,,,0.000351860000,  -0.00760,
,,,0.000351880000,  -0.00712,
,,,0.000351900000,  -0.00744,
,,,0.000351920000,  -0.00768,
,,,0.000351940000,  -0.00752,
,,,0.000351960000,  -0.00744,
,,,0.000351980000,  -0.00824,
,,,0.000352000000,  -0.00816,
,,,0.000352020000,  -0.00816,
,,,0.000352040000,  -0.00720,
,,,0.000352060000,  -0.00752,
,,,0.000352080000,  -0.00760,
,,,0.000352100000,  -0.00824,
,,,0.000352120000,  -0.00808,
,,,0.000352140000,  -0.00776,
,,,0.000352160000,  -0.00760,
,,,0.000352180000,  -0.00856,
,,,0.000352200000,  -0.00856,
,,,0.000352220000,  -0.00792,
,,,0.000352240000,  -0.00784,
,,,0.000352260000,  -0.00832,
,,,0.000352280000,  -0.00824,
,,,0.000352300000,  -0.00832,
,,,0.000352320000,  -0.00776,
,,,0.000352340000,  -0.00776,
,,,0.000352360000,  -0.00824,
,,,0.000352380000,  -0.00808,
,,,0.000352400000,  -0.00808,
,,,0.000352420000,  -0.00800,
,,,0.000352440000,  -0.00768,
,,,0.000352460000,  -0.00800,
,,,0.000352480000,  -0.00784,
,,,0.000352500000,  -0.00760,
,,,0.000352520000,  -0.00784,
,,,0.000352540000,  -0.00800,
,,,0.000352560000,  -0.00816,
,,,0.000352580000,  -0.00760,
,,,0.000352600000,  -0.00776,
,,,0.000352620000,  -0.00784,
,,,0.000352640000,  -0.00848,
,,,0.000352660000,  -0.00848,
,,,0.000352680000,  -0.00808,
,,,0.000352700000,  -0.00760,
,,,0.000352720000,  -0.00800,
,,,0.000352740000,  -0.00816,
,,,0.000352760000,  -0.00808,
,,,0.000352780000,  -0.00800,
,,,0.000352800000,  -0.00792,
,,,0.000352820000,  -0.00832,
,,,0.000352840000,  -0.00808,
,,,0.000352860000,  -0.00848,
,,,0.000352880000,  -0.00848,
,,,0.000352900000,  -0.00736,
,,,0.000352920000,  -0.00784,
,,,0.000352940000,  -0.00744,
,,,0.000352960000,  -0.00784,
,,,0.000352980000,  -0.00792,
,,,0.000353000000,  -0.00808,
,,,0.000353020000,  -0.00752,
,,,0.000353040000,  -0.00744,
,,,0.000353060000,  -0.00864,
,,,0.000353080000,  -0.00864,
,,,0.000353100000,  -0.00760,
,,,0.000353120000,  -0.00744,
,,,0.000353140000,  -0.00760,
,,,0.000353160000,  -0.00800,
,,,0.000353180000,  -0.00728,
,,,0.000353200000,  -0.00760,
,,,0.000353220000,  -0.00768,
,,,0.000353240000,  -0.00808,
,,,0.000353260000,  -0.00800,
